0,1,2,3,4,5,6,7,8
1,000000.bmp,267893.4,2.0036905,12679.354,2.4777977,31639.0,4.999842,282.49106
1,000001.bmp,277417.5,2.0017357,12220.597,2.4773962,30524.0,4.999836,277.4909
1,000002.bmp,287975.12,2.003445,11792.276,2.47698,29429.0,4.9998302,272.49075
1,000003.bmp,316213.25,2.001741,10721.324,2.4758692,26779.0,4.999813,259.9903
1,000004.bmp,282509.94,2.0017512,12000.499,2.47719,29974.0,4.999833,274.9908
1,000005.bmp,277433.53,2.0018513,12221.303,2.4773962,30524.0,4.999836,277.4909
1,000006.bmp,268393.1,2.007566,12703.877,2.4777977,31639.0,4.999842,282.49106
1,000007.bmp,258636.03,2.0038438,13135.196,2.4781852,32774.0,4.9998474,287.49124
1,000008.bmp,202589.95,2.0079503,16836.664,2.48071,41924.0,4.999881,324.99225
1,000009.bmp,196573.52,2.0090334,17370.104,2.4810033,43229.0,4.999884,329.99237
1,000010.bmp,241272.66,2.0021393,14057.0205,2.478921,35104.0,4.9998574,297.49152
1,000011.bmp,195920.94,2.0020885,17310.057,2.4810033,43229.0,4.999884,329.99237
1,000012.bmp,187492.22,2.0044441,18130.197,2.4814267,45224.0,4.9998894,337.49252
1,000013.bmp,205601.3,2.0063772,16564.65,2.48056,41279.0,4.999879,322.4922
1,000014.bmp,215327.14,2.0042481,15783.453,2.4800956,39374.0,4.999873,314.992
1,000015.bmp,199178.33,2.0046053,17069.215,2.4808578,42574.0,4.9998827,327.4923
1,000016.bmp,199168.39,2.0045052,17068.363,2.4808578,42574.0,4.9998827,327.4923
1,000017.bmp,169226.52,2.0023181,20045.205,2.4823449,50054.0,4.9999003,354.99292
1,000018.bmp,193417.12,2.0068161,17615.832,2.4811466,43889.0,4.999886,332.49243
1,000019.bmp,157873.27,2.0023315,21487.02,2.4829469,53654.0,4.999907,367.49316
1,000020.bmp,212100.81,2.0058742,16048.999,2.480253,40004.0,4.999875,317.49207
1,000021.bmp,250274.08,2.0075285,13623.089,2.4785595,33929.0,4.9998527,292.4914
1,000022.bmp,215080.34,2.001882,15764.822,2.4800956,39374.0,4.999873,314.992
1,000023.bmp,241224.53,2.00174,14054.216,2.478921,35104.0,4.9998574,297.49152
1,000024.bmp,225734.27,2.001795,15019.469,2.4796088,37514.0,4.9998665,307.4918
1,000025.bmp,218766.62,2.0039408,15530.542,2.479936,38749.0,4.999871,312.49194
1,000026.bmp,245811.39,2.0056584,13845.06,2.4787416,34514.0,4.999855,294.99146
1,000027.bmp,195920.5,2.002084,17310.02,2.4810033,43229.0,4.999884,329.99237
1,000028.bmp,181832.84,2.002115,18651.703,2.4816985,46579.0,4.9998927,342.49265
1,000029.bmp,160025.8,2.0020185,21191.365,2.4828298,52924.0,4.9999056,364.9931
1,000030.bmp,199748.06,2.0105467,17119.805,2.4808578,42574.0,4.9998827,327.4923
1,000031.bmp,164524.38,2.002101,20613.63,2.4825907,51479.0,4.9999027,359.993
1,000032.bmp,172010.47,2.0067308,19806.434,2.4822192,49349.0,4.999899,352.49286
1,000033.bmp,171629.89,2.0021532,19761.252,2.4822192,49349.0,4.999899,352.49286
1,000034.bmp,174099.8,2.002158,19480.996,2.482092,48649.0,4.999897,349.9928
1,000035.bmp,174316.28,2.0047164,19505.89,2.482092,48649.0,4.999897,349.9928
1,000036.bmp,155733.78,2.0022538,21780.516,2.4830625,54389.0,4.999908,369.9932
1,000037.bmp,145868.0,2.0047822,23311.605,2.4836173,58139.0,4.999914,382.4934
1,000038.bmp,166858.98,2.0023093,20329.447,2.4824686,50764.0,4.9999013,357.49295
1,000039.bmp,143959.16,2.004581,23615.969,2.483724,58904.0,4.999915,384.99347
10,000320.bmp,1031045.56,2.0164435,3333.1812,2.4565992,8264.0,4.999395,144.98245
10,000321.bmp,989267.6,2.0005574,3422.9539,2.4573398,8554.0,4.9994154,147.48276
10,000322.bmp,1103391.2,2.0095155,3094.654,2.4550383,7699.0,4.9993505,139.98181
10,000323.bmp,1023973.5,2.0005472,3306.9043,2.4565992,8264.0,4.999395,144.98245
10,000324.bmp,1061937.9,2.0035896,3197.7292,2.4558325,7979.0,4.9993734,142.48215
10,000325.bmp,989787.56,2.0017464,3424.988,2.4573398,8554.0,4.9994154,147.48276
10,000326.bmp,1103926.1,2.0105588,3096.2605,2.4550383,7699.0,4.9993505,139.98181
10,000327.bmp,1064612.9,2.0093277,3206.887,2.4558325,7979.0,4.9993734,142.48215
10,000328.bmp,1099127.0,2.0005796,3080.8926,2.4550383,7699.0,4.9993505,139.98181
10,000329.bmp,927437.3,2.0067215,3672.3005,2.4587476,9149.0,4.9994535,152.48334
10,000330.bmp,867812.25,2.0035024,3912.8403,2.4600656,9764.0,4.999488,157.48387
10,000331.bmp,609976.5,2.000614,5551.704,2.4664888,13874.0,4.9996395,187.48648
10,000332.bmp,789133.7,2.0006223,4291.3345,2.4618917,10724.0,4.9995337,164.98462
10,000333.bmp,839628.2,2.0006206,4033.2512,2.4606934,10079.0,4.999504,159.98413
10,000334.bmp,839624.4,2.0006115,4033.233,2.4606934,10079.0,4.999504,159.98413
10,000335.bmp,765578.56,2.0006251,4423.382,2.4624639,11054.0,4.9995475,167.48485
10,000336.bmp,723686.4,2.0073123,4709.155,2.463558,11729.0,4.9995737,172.48529
10,000337.bmp,768336.3,2.0086606,4441.1484,2.4624639,11054.0,4.9995475,167.48485
10,000338.bmp,662266.44,2.0006945,5113.7754,2.4650848,12779.0,4.999609,179.98592
10,000339.bmp,702608.44,2.006029,4844.5596,2.4640815,12074.0,4.999586,174.9855
10,000340.bmp,839831.56,2.001174,4034.367,2.4606934,10079.0,4.999504,159.98413
10,000341.bmp,956544.5,2.0011544,3542.0432,2.4580555,8849.0,4.999435,149.98305
10,000342.bmp,925443.8,2.0017886,3663.2732,2.4587476,9149.0,4.9994535,152.48334
10,000343.bmp,992121.1,2.007156,3434.244,2.4573398,8554.0,4.9994154,147.48276
10,000344.bmp,928779.94,2.0100415,3678.376,2.4587476,9149.0,4.9994535,152.48334
10,000345.bmp,924951.1,2.0005853,3661.0713,2.4587476,9149.0,4.9994535,152.48334
10,000346.bmp,840036.06,2.0017302,4035.488,2.4606934,10079.0,4.999504,159.98413
10,000347.bmp,895799.7,2.0023243,3786.3953,2.4594173,9454.0,4.999471,154.98361
10,000348.bmp,926359.56,2.004045,3667.4026,2.4587476,9149.0,4.9994535,152.48334
10,000349.bmp,1024521.7,2.0017557,3308.902,2.4565992,8264.0,4.999395,144.98245
10,000350.bmp,743055.94,2.0006099,4557.3896,2.4630191,11389.0,4.999561,169.98508
10,000351.bmp,527937.25,2.0245435,6559.521,2.4689834,16199.0,4.9996915,202.4875
10,000352.bmp,743258.9,2.0012252,4558.791,2.4630191,11389.0,4.999561,169.98508
10,000353.bmp,768573.44,2.0094876,4442.977,2.4624639,11054.0,4.9995475,167.48485
10,000354.bmp,765580.5,2.0006301,4423.393,2.4624639,11054.0,4.9995475,167.48485
10,000355.bmp,662630.0,2.0019307,5116.9346,2.4650848,12779.0,4.999609,179.98592
10,000356.bmp,614667.6,2.017873,5599.5977,2.4664888,13874.0,4.9996395,187.48648
10,000357.bmp,721759.75,2.0013487,4695.1646,2.463558,11729.0,4.9995737,172.48529
10,000358.bmp,747706.44,2.0146549,4589.384,2.4630191,11389.0,4.999561,169.98508
10,000359.bmp,707332.6,2.0211155,4880.9937,2.4640815,12074.0,4.999586,174.9855
11,000880.bmp,440776.62,2.0419812,7996.399,2.4717839,19579.0,4.9997444,222.48863
11,000881.bmp,445004.56,2.013924,7709.3013,2.4714618,19139.0,4.9997387,219.98851
11,000882.bmp,433397.2,2.0061378,7856.0356,2.4717839,19579.0,4.9997444,222.48863
11,000883.bmp,492224.78,2.029373,7074.3936,2.4700963,17429.0,4.999713,209.98795
11,000884.bmp,465367.75,2.010761,7349.3315,2.470795,18274.0,4.9997263,214.98824
11,000885.bmp,425614.44,2.0152342,8071.0137,2.4720988,20024.0,4.99975,224.98877
11,000886.bmp,315123.7,2.0349777,11110.978,2.4760997,27299.0,4.999817,262.4904
11,000887.bmp,371412.47,2.0017438,9127.952,2.4738498,22799.0,4.9997807,239.98947
11,000888.bmp,356326.94,2.0017216,9514.183,2.4743857,23764.0,4.9997897,244.98969
11,000889.bmp,387464.3,2.0017035,8749.445,2.4732912,21854.0,4.999771,234.98924
11,000890.bmp,349165.62,2.0019348,9711.386,2.4746454,24254.0,4.999794,247.48979
11,000891.bmp,316239.03,2.001904,10722.198,2.4758692,26779.0,4.999813,259.9903
11,000892.bmp,310220.0,2.0019336,10930.557,2.4760997,27299.0,4.999817,262.4904
11,000893.bmp,273253.38,2.007745,12480.143,2.477599,31079.0,4.9998393,279.991
11,000894.bmp,316522.4,2.0037668,10732.174,2.4758692,26779.0,4.999813,259.9903
11,000895.bmp,233544.25,2.0040472,14549.382,2.4792705,36299.0,4.999862,302.49167
11,000896.bmp,275575.34,2.0254326,12590.089,2.477599,31079.0,4.9998393,279.991
11,000897.bmp,287242.06,2.0364714,12208.646,2.47719,29974.0,4.999833,274.9908
11,000898.bmp,245641.78,2.0042055,13835.03,2.4787416,34514.0,4.999855,294.99146
11,000899.bmp,274384.38,2.0163324,12533.521,2.477599,31079.0,4.9998393,279.991
11,000900.bmp,452677.03,2.001536,7487.7456,2.4711323,18704.0,4.9997325,217.48837
11,000901.bmp,423509.78,2.0048554,8029.4453,2.4720988,20024.0,4.99975,224.98877
11,000902.bmp,463333.7,2.0015593,7315.699,2.470795,18274.0,4.9997263,214.98824
11,000903.bmp,439246.78,2.034544,7967.274,2.4717839,19579.0,4.9997444,222.48863
11,000904.bmp,396185.1,2.0032773,8570.0205,2.4730027,21389.0,4.9997663,232.48914
11,000905.bmp,305359.44,2.0087388,11178.632,2.476326,27824.0,4.99982,264.99048
11,000906.bmp,364331.3,2.0050561,9335.542,2.4741206,23279.0,4.9997854,242.48958
11,000907.bmp,387798.12,2.003497,8757.284,2.4732912,21854.0,4.999771,234.98924
11,000908.bmp,371702.8,2.0033777,9135.402,2.4738498,22799.0,4.9997807,239.98947
11,000909.bmp,396173.2,2.003217,8569.763,2.4730027,21389.0,4.9997663,232.48914
11,000910.bmp,342468.53,2.0036783,9918.208,2.4749,24749.0,4.999798,249.9899
11,000911.bmp,324416.84,2.0146635,10583.027,2.4756339,26264.0,4.9998097,257.4902
11,000912.bmp,332678.25,2.02627,10437.316,2.475394,25754.0,4.999806,254.9901
11,000913.bmp,342713.72,2.0051818,9925.65,2.4749,24749.0,4.999798,249.9899
11,000914.bmp,326137.9,2.0257695,10641.367,2.4756339,26264.0,4.9998097,257.4902
11,000915.bmp,293151.8,2.0019689,11567.376,2.476766,28889.0,4.999827,269.99066
11,000916.bmp,268159.97,2.0057533,12692.406,2.4777977,31639.0,4.999842,282.49106
11,000917.bmp,288067.94,2.0040905,11796.077,2.47698,29429.0,4.9998302,272.49075
11,000918.bmp,270369.7,2.060235,13269.974,2.4779932,32204.0,4.9998446,284.99115
11,000919.bmp,316262.1,2.0020502,10722.98,2.4758692,26779.0,4.999813,259.9903
12,000360.bmp,388059.44,2.0051224,8764.391,2.4732912,21854.0,4.999771,234.98924
12,000361.bmp,258488.48,2.0027695,13128.154,2.4781852,32774.0,4.9998474,287.49124
12,000362.bmp,225754.77,2.0020459,15021.35,2.4796088,37514.0,4.9998665,307.4918
12,000363.bmp,316377.5,2.0029182,10727.63,2.4758692,26779.0,4.999813,259.9903
12,000364.bmp,249597.6,2.0019646,13585.331,2.4785595,33929.0,4.9998527,292.4914
12,000365.bmp,342095.34,2.001495,9907.399,2.4749,24749.0,4.999798,249.9899
12,000366.bmp,485606.06,2.000777,6974.709,2.4700963,17429.0,4.999713,209.98795
12,000367.bmp,442209.5,2.000724,7658.772,2.4714618,19139.0,4.9997387,219.98851
12,000368.bmp,316154.03,2.0014346,10719.684,2.4758692,26779.0,4.999813,259.9903
12,000369.bmp,335410.66,2.0020978,10110.595,2.4751494,25249.0,4.999802,252.49
12,000370.bmp,162336.45,2.003243,20913.857,2.482711,52199.0,4.999904,362.49304
12,000371.bmp,174008.12,2.0011036,19470.738,2.482092,48649.0,4.999897,349.9928
12,000372.bmp,165195.2,2.0108867,20704.088,2.4825907,51479.0,4.9999027,359.993
12,000373.bmp,158255.78,2.007528,21542.783,2.4829469,53654.0,4.999907,367.49316
12,000374.bmp,158420.31,2.0096843,21565.924,2.4829469,53654.0,4.999907,367.49316
12,000375.bmp,153597.86,2.00166,22070.305,2.4831765,55129.0,4.9999094,372.49326
12,000376.bmp,145760.6,2.003306,23294.441,2.4836173,58139.0,4.999914,382.4934
12,000377.bmp,176582.28,2.0016963,19198.271,2.4819627,47954.0,4.9998956,347.49277
12,000378.bmp,179155.27,2.0016422,18921.523,2.4818316,47264.0,4.999894,344.9927
12,000379.bmp,133236.2,2.0031407,25479.951,2.484336,63599.0,4.9999213,399.9937
12,000380.bmp,249478.19,2.000938,13578.365,2.4785595,33929.0,4.9998527,292.4914
12,000381.bmp,198826.75,2.000998,17038.498,2.4808578,42574.0,4.9998827,327.4923
12,000382.bmp,174188.03,2.0033104,19492.209,2.482092,48649.0,4.999897,349.9928
12,000383.bmp,267799.3,2.0030556,12675.336,2.4777977,31639.0,4.999842,282.49106
12,000384.bmp,245272.84,2.0011265,13813.776,2.4787416,34514.0,4.999855,294.99146
12,000385.bmp,396876.38,2.0072558,8587.04,2.4730027,21389.0,4.9997663,232.48914
12,000386.bmp,387297.94,2.000844,8745.688,2.4732912,21854.0,4.999771,234.98924
12,000387.bmp,372171.2,2.0063848,9149.115,2.4738498,22799.0,4.9997807,239.98947
12,000388.bmp,335201.56,2.0007122,10103.597,2.4751494,25249.0,4.999802,252.49
12,000389.bmp,335200.8,2.0007079,10103.574,2.4751494,25249.0,4.999802,252.49
12,000390.bmp,155639.98,2.0010476,21767.396,2.4830625,54389.0,4.999908,369.9932
12,000391.bmp,162324.53,2.0030959,20912.32,2.482711,52199.0,4.999904,362.49304
12,000392.bmp,176717.72,2.0033696,19214.316,2.4819627,47954.0,4.9998956,347.49277
12,000393.bmp,129848.484,2.001405,26100.324,2.4845297,65204.0,4.999923,404.99377
12,000394.bmp,169145.4,2.0013585,20035.6,2.4823449,50054.0,4.9999003,354.99292
12,000395.bmp,113934.336,2.0035553,29808.895,2.4855158,74389.0,4.999933,432.49417
12,000396.bmp,120736.375,2.001802,28081.277,2.4850836,70139.0,4.999929,419.99402
12,000397.bmp,129879.67,2.0018857,26106.592,2.4845297,65204.0,4.999923,404.99377
12,000398.bmp,115173.92,2.0018704,29439.504,2.4854314,73529.0,4.999932,429.99414
12,000399.bmp,125178.85,2.0017781,27084.059,2.4848118,67649.0,4.999926,412.4939
13,000400.bmp,722061.75,2.0022552,4697.2905,2.463558,11729.0,4.9995737,172.48529
13,000401.bmp,579656.3,2.0050337,5866.7285,2.4673638,14629.0,4.999658,192.48685
13,000402.bmp,664826.06,2.0092561,5135.6587,2.4650848,12779.0,4.999609,179.98592
13,000403.bmp,682709.56,2.0056453,4984.029,2.4645903,12424.0,4.9995975,177.48572
13,000404.bmp,628514.44,2.007065,5421.0825,2.4660337,13504.0,4.99963,184.9863
13,000405.bmp,702429.5,2.0053802,4842.9927,2.4640815,12074.0,4.999586,174.9855
13,000406.bmp,662300.2,2.0007966,5114.036,2.4650848,12779.0,4.999609,179.98592
13,000407.bmp,594184.7,2.0015593,5704.444,2.466932,14249.0,4.999649,189.98666
13,000408.bmp,594196.56,2.0015993,5704.558,2.466932,14249.0,4.999649,189.98666
13,000409.bmp,610232.44,2.0015223,5554.224,2.4664888,13874.0,4.9996395,187.48648
13,000410.bmp,595554.9,2.0065887,5718.778,2.466932,14249.0,4.999649,189.98666
13,000411.bmp,463349.7,2.0016973,7316.203,2.470795,18274.0,4.9997263,214.98824
13,000412.bmp,414044.88,2.0042334,8207.335,2.4724066,20474.0,4.999756,227.48889
13,000413.bmp,404426.97,2.0009053,8375.79,2.472708,20929.0,4.999761,229.98901
13,000414.bmp,474223.62,2.000961,7143.4307,2.47045,17849.0,4.99972,212.4881
13,000415.bmp,423825.06,2.0066237,8036.5283,2.4720988,20024.0,4.99975,224.98877
13,000416.bmp,396597.84,2.00564,8580.128,2.4730027,21389.0,4.9997663,232.48914
13,000417.bmp,335244.0,2.0009656,10104.876,2.4751494,25249.0,4.999802,252.49
13,000418.bmp,387493.06,2.0019207,8750.3955,2.4732912,21854.0,4.999771,234.98924
13,000419.bmp,387486.16,2.001885,8750.239,2.4732912,21854.0,4.999771,234.98924
13,000420.bmp,549826.5,2.0023243,6169.1616,2.4681942,15404.0,4.9996753,197.48718
13,000421.bmp,463512.84,2.002471,7319.0312,2.470795,18274.0,4.9997263,214.98824
13,000422.bmp,474186.78,2.0008054,7142.8755,2.47045,17849.0,4.99972,212.4881
13,000423.bmp,722066.0,2.002267,4697.3184,2.463558,11729.0,4.9995737,172.48529
13,000424.bmp,452511.0,2.0008018,7484.999,2.4711323,18704.0,4.9997325,217.48837
13,000425.bmp,509753.12,2.0008566,6644.8447,2.4693635,16604.0,4.999699,204.98766
13,000426.bmp,549677.5,2.001713,6167.278,2.4681942,15404.0,4.9996753,197.48718
13,000427.bmp,486155.62,2.003248,6983.3223,2.4700963,17429.0,4.999713,209.98795
13,000428.bmp,509936.7,2.001646,6647.4663,2.4693635,16604.0,4.999699,204.98766
13,000429.bmp,524555.8,2.009501,6510.7827,2.4689834,16199.0,4.9996915,202.4875
13,000430.bmp,406160.72,2.0102434,8414.879,2.472708,20929.0,4.999761,229.98901
13,000431.bmp,442427.62,2.0017798,7662.813,2.4714618,19139.0,4.9997387,219.98851
13,000432.bmp,335230.25,2.0008836,10104.462,2.4751494,25249.0,4.999802,252.49
13,000433.bmp,432671.62,2.0027103,7842.6143,2.4717839,19579.0,4.9997444,222.48863
13,000434.bmp,452729.12,2.0018349,7488.8647,2.4711323,18704.0,4.9997325,217.48837
13,000435.bmp,465151.47,2.010103,7346.927,2.470795,18274.0,4.9997263,214.98824
13,000436.bmp,407044.88,2.0148964,8434.356,2.472708,20929.0,4.999761,229.98901
13,000437.bmp,379170.9,2.0009842,8934.395,2.4735734,22324.0,4.999776,237.48936
13,000438.bmp,310067.7,2.0009506,10925.189,2.4760997,27299.0,4.999817,262.4904
13,000439.bmp,432326.75,2.0009766,7835.824,2.4717839,19579.0,4.9997444,222.48863
14,000440.bmp,593932.2,2.00064,5701.8237,2.466932,14249.0,4.999649,189.98666
14,000441.bmp,1026971.3,2.007163,3317.8403,2.4565992,8264.0,4.999395,144.98245
14,000442.bmp,1099425.1,2.001191,3081.834,2.4550383,7699.0,4.9993505,139.98181
14,000443.bmp,549535.3,2.0011952,6165.6826,2.4681942,15404.0,4.9996753,197.48718
14,000444.bmp,813800.94,2.000639,4161.329,2.4613018,10399.0,4.9995193,162.48438
14,000445.bmp,957350.06,2.0030463,3545.3918,2.4580555,8849.0,4.999435,149.98305
14,000446.bmp,1024009.4,2.0006173,3307.0203,2.4565992,8264.0,4.999395,144.98245
14,000447.bmp,956609.56,2.0012906,3542.2842,2.4580555,8849.0,4.999435,149.98305
14,000448.bmp,839905.75,2.0013509,4034.7231,2.4606934,10079.0,4.999504,159.98413
14,000449.bmp,839637.9,2.0006437,4033.2976,2.4606934,10079.0,4.999504,159.98413
14,000450.bmp,535688.1,2.00072,6322.2754,2.4685938,15799.0,4.9996834,199.98734
14,000451.bmp,765607.5,2.0007007,4423.5493,2.4624639,11054.0,4.9995475,167.48485
14,000452.bmp,721547.9,2.0006926,4693.6245,2.463558,11729.0,4.9995737,172.48529
14,000453.bmp,721785.4,2.00142,4695.3315,2.463558,11729.0,4.9995737,172.48529
14,000454.bmp,627076.6,2.0019917,5407.3794,2.4660337,13504.0,4.99963,184.9863
14,000455.bmp,789398.7,2.0013628,4292.9233,2.4618917,10724.0,4.9995337,164.98462
14,000456.bmp,839891.2,2.001316,4034.653,2.4606934,10079.0,4.999504,159.98413
14,000457.bmp,895430.6,2.0013618,3784.5752,2.4594173,9454.0,4.999471,154.98361
14,000458.bmp,789172.6,2.000721,4291.5464,2.4618917,10724.0,4.9995337,164.98462
14,000459.bmp,789345.06,2.001227,4292.632,2.4618917,10724.0,4.9995337,164.98462
14,000460.bmp,721545.25,2.0006852,4693.608,2.463558,11729.0,4.9995737,172.48529
14,000461.bmp,743079.4,2.000673,4557.533,2.4630191,11389.0,4.999561,169.98508
14,000462.bmp,813810.6,2.0006628,4161.3784,2.4613018,10399.0,4.9995193,162.48438
14,000463.bmp,442559.4,2.002514,7665.623,2.4714618,19139.0,4.9997387,219.98851
14,000464.bmp,700915.2,2.000644,4831.5557,2.4640815,12074.0,4.999586,174.9855
14,000465.bmp,743715.75,2.002593,4561.907,2.4630191,11389.0,4.999561,169.98508
14,000466.bmp,701745.06,2.0032883,4837.941,2.4640815,12074.0,4.999586,174.9855
14,000467.bmp,682375.0,2.0045936,4981.415,2.4645903,12424.0,4.9995975,177.48572
14,000468.bmp,644126.4,2.0007076,5257.86,2.4655657,13139.0,4.9996195,182.48611
14,000469.bmp,594139.44,2.0014067,5704.0093,2.466932,14249.0,4.999649,189.98666
14,000470.bmp,387283.47,2.0007691,8745.362,2.4732912,21854.0,4.999771,234.98924
14,000471.bmp,593961.2,2.0007377,5702.1025,2.466932,14249.0,4.999649,189.98666
14,000472.bmp,578539.9,2.0007591,5854.221,2.4673638,14629.0,4.999658,192.48685
14,000473.bmp,594594.1,2.0030763,5708.7676,2.466932,14249.0,4.999649,189.98666
14,000474.bmp,442216.66,2.0007565,7658.896,2.4714618,19139.0,4.9997387,219.98851
14,000475.bmp,744393.2,2.004624,4566.533,2.4630191,11389.0,4.999561,169.98508
14,000476.bmp,681198.44,2.0007243,4971.8,2.4645903,12424.0,4.9995975,177.48572
14,000477.bmp,722868.75,2.0047686,4703.187,2.463558,11729.0,4.9995737,172.48529
14,000478.bmp,627102.06,2.0020728,5407.5986,2.4660337,13504.0,4.99963,184.9863
14,000479.bmp,626913.4,2.0014017,5405.7856,2.4660337,13504.0,4.99963,184.9863
15,000480.bmp,510466.53,2.0039325,6655.06,2.4693635,16604.0,4.999699,204.98766
15,000481.bmp,536752.1,2.0051074,6336.1396,2.4685938,15799.0,4.9996834,199.98734
15,000482.bmp,535882.4,2.0015144,6324.7856,2.4685938,15799.0,4.9996834,199.98734
15,000483.bmp,646436.3,2.0087113,5278.893,2.4655657,13139.0,4.9996195,182.48611
15,000484.bmp,565218.8,2.006751,6026.274,2.4677844,15014.0,4.999667,194.98701
15,000485.bmp,422694.97,2.0008605,8013.4463,2.4720988,20024.0,4.99975,224.98877
15,000486.bmp,422870.28,2.0017593,8017.0454,2.4720988,20024.0,4.99975,224.98877
15,000487.bmp,497871.78,2.0026107,6814.8843,2.4697344,17014.0,4.9997063,207.48781
15,000488.bmp,486638.28,2.0054436,6990.9766,2.4700963,17429.0,4.999713,209.98795
15,000489.bmp,523350.8,2.004471,6494.486,2.4689834,16199.0,4.9996915,202.4875
15,000490.bmp,442434.84,2.0018125,7662.938,2.4714618,19139.0,4.9997387,219.98851
15,000491.bmp,395902.5,2.0018482,8563.907,2.4730027,21389.0,4.9997663,232.48914
15,000492.bmp,452694.3,2.001681,7488.289,2.4711323,18704.0,4.9997325,217.48837
15,000493.bmp,414016.72,2.0040967,8206.776,2.4724066,20474.0,4.999756,227.48889
15,000494.bmp,464356.47,2.0064604,7333.6133,2.470795,18274.0,4.9997263,214.98824
15,000495.bmp,322291.88,2.0009856,10511.178,2.4756339,26264.0,4.9998097,257.4902
15,000496.bmp,349813.2,2.0059924,9731.069,2.4746454,24254.0,4.999794,247.48979
15,000497.bmp,363759.25,2.001839,9320.5625,2.4741206,23279.0,4.9997854,242.48958
15,000498.bmp,356944.25,2.0055342,9532.304,2.4743857,23764.0,4.9997897,244.98969
15,000499.bmp,379669.78,2.0038235,8947.072,2.4735734,22324.0,4.999776,237.48936
15,000500.bmp,453206.47,2.0041525,7497.534,2.4711323,18704.0,4.9997325,217.48837
15,000501.bmp,463178.9,2.0008907,7313.2554,2.470795,18274.0,4.9997263,214.98824
15,000502.bmp,442393.6,2.0016258,7662.2236,2.4714618,19139.0,4.9997387,219.98851
15,000503.bmp,497446.8,2.0007637,6808.599,2.4697344,17014.0,4.9997063,207.48781
15,000504.bmp,549429.3,2.0007403,6164.2812,2.4681942,15404.0,4.9996753,197.48718
15,000505.bmp,335567.25,2.0030324,10115.314,2.4751494,25249.0,4.999802,252.49
15,000506.bmp,404430.7,2.0009236,8375.867,2.472708,20929.0,4.999761,229.98901
15,000507.bmp,432297.16,2.0008395,7835.2876,2.4717839,19579.0,4.9997444,222.48863
15,000508.bmp,413400.4,2.0008383,8193.433,2.4724066,20474.0,4.999756,227.48889
15,000509.bmp,422691.38,2.0008435,8013.3784,2.4720988,20024.0,4.99975,224.98877
15,000510.bmp,371256.78,2.000905,9124.127,2.4738498,22799.0,4.9997807,239.98947
15,000511.bmp,363760.06,2.0018435,9320.583,2.4741206,23279.0,4.9997854,242.48958
15,000512.bmp,371674.9,2.003365,9135.344,2.4738498,22799.0,4.9997807,239.98947
15,000513.bmp,335742.28,2.0042152,10121.287,2.4751494,25249.0,4.999802,252.49
15,000514.bmp,379312.12,2.0017984,8938.029,2.4735734,22324.0,4.999776,237.48936
15,000515.bmp,277342.25,2.0011926,12217.281,2.4773962,30524.0,4.999836,277.4909
15,000516.bmp,304250.1,2.0011659,11136.488,2.476326,27824.0,4.99982,264.99048
15,000517.bmp,304220.84,2.0009735,11135.417,2.476326,27824.0,4.99982,264.99048
15,000518.bmp,329133.03,2.0039876,10322.54,2.475394,25754.0,4.999806,254.9901
15,000519.bmp,316245.47,2.0020137,10722.785,2.4758692,26779.0,4.999813,259.9903
16,000520.bmp,1277176.4,2.0018952,2654.5132,2.4515533,6629.0,4.9992456,129.9804
16,000521.bmp,1565877.8,2.0007172,2162.7751,2.4463558,5404.0,4.999075,117.478264
16,000522.bmp,1182743.6,2.0004027,2862.5762,2.4533608,7154.0,4.999301,134.98112
16,000523.bmp,1500411.9,2.0003538,2256.3992,2.4474826,5639.0,4.9991136,119.97872
16,000524.bmp,1100903.6,2.0047092,3087.2522,2.4550383,7699.0,4.9993505,139.98181
16,000525.bmp,925473.75,2.001991,3663.6436,2.4587476,9149.0,4.9994535,152.48334
16,000526.bmp,956668.7,2.0015516,3542.7466,2.4580555,8849.0,4.999435,149.98305
16,000527.bmp,989200.1,2.0004208,3422.7202,2.4573398,8554.0,4.9994154,147.48276
16,000528.bmp,1140092.9,2.001169,2971.7358,2.4542148,7424.0,4.9993267,137.48148
16,000529.bmp,839951.94,2.0015986,4035.2227,2.4606934,10079.0,4.999504,159.98413
16,000530.bmp,744324.56,2.0048528,4567.0547,2.4630191,11389.0,4.999561,169.98508
16,000531.bmp,897234.06,2.0064964,3794.2847,2.4594173,9454.0,4.999471,154.98361
16,000532.bmp,989460.6,2.0010853,3423.8567,2.4573398,8554.0,4.9994154,147.48276
16,000533.bmp,956609.4,2.0014277,3542.5269,2.4580555,8849.0,4.999435,149.98305
16,000534.bmp,814063.06,2.0014899,4163.0986,2.4613018,10399.0,4.9995193,162.48438
16,000535.bmp,789068.25,2.0004563,4290.9785,2.4618917,10724.0,4.9995337,164.98462
16,000536.bmp,701520.0,2.0027835,4836.722,2.4640815,12074.0,4.999586,174.9855
16,000537.bmp,721671.75,2.0011737,4694.7534,2.463558,11729.0,4.9995737,172.48529
16,000538.bmp,627276.1,2.002904,5409.8438,2.4660337,13504.0,4.99963,184.9863
16,000539.bmp,565101.25,2.0066788,6026.0566,2.4677844,15014.0,4.999667,194.98701
16,000540.bmp,789741.4,2.002507,4295.378,2.4618917,10724.0,4.9995337,164.98462
16,000541.bmp,1140095.9,2.0011742,2971.744,2.4542148,7424.0,4.9993267,137.48148
16,000542.bmp,1186627.8,2.0084221,2874.052,2.4533608,7154.0,4.999301,134.98112
16,000543.bmp,1060996.2,2.0016067,3194.5645,2.4558325,7979.0,4.9993734,142.48215
16,000544.bmp,956234.0,2.0004358,3540.7715,2.4580555,8849.0,4.999435,149.98305
16,000545.bmp,866955.75,2.0013187,3908.5754,2.4600656,9764.0,4.999488,157.48387
16,000546.bmp,743385.0,2.0017023,4559.878,2.4630191,11389.0,4.999561,169.98508
16,000547.bmp,869158.6,2.0074391,3920.5286,2.4600656,9764.0,4.999488,157.48387
16,000548.bmp,991259.9,2.0054135,3431.2627,2.4573398,8554.0,4.9994154,147.48276
16,000549.bmp,765513.5,2.0004551,4423.0063,2.4624639,11054.0,4.9995475,167.48485
16,000550.bmp,766616.75,2.0039582,4430.7515,2.4624639,11054.0,4.9995475,167.48485
16,000551.bmp,644036.56,2.0004287,5257.127,2.4655657,13139.0,4.9996195,182.48611
16,000552.bmp,928784.2,2.0107424,3679.6584,2.4587476,9149.0,4.9994535,152.48334
16,000553.bmp,867023.1,2.001543,3909.0134,2.4600656,9764.0,4.999488,157.48387
16,000554.bmp,578540.9,2.0008316,5854.433,2.4673638,14629.0,4.999658,192.48685
16,000555.bmp,722307.5,2.003281,4699.6973,2.463558,11729.0,4.9995737,172.48529
16,000556.bmp,549946.8,2.0031068,6171.5723,2.4681942,15404.0,4.9996753,197.48718
16,000557.bmp,662183.44,2.000444,5113.135,2.4650848,12779.0,4.999609,179.98592
16,000558.bmp,681577.44,2.0021129,4975.2505,2.4645903,12424.0,4.9995975,177.48572
16,000559.bmp,563843.2,2.0013855,6010.1606,2.4677844,15014.0,4.999667,194.98701
17,000560.bmp,413669.88,2.0022116,8199.056,2.4724066,20474.0,4.999756,227.48889
17,000561.bmp,610473.6,2.0024512,5556.802,2.4664888,13874.0,4.9996395,187.48648
17,000562.bmp,564892.4,2.0053165,6021.966,2.4677844,15014.0,4.999667,194.98701
17,000563.bmp,610277.94,2.0016713,5554.638,2.4664888,13874.0,4.9996395,187.48648
17,000564.bmp,681446.44,2.0015216,4973.781,2.4645903,12424.0,4.9995975,177.48572
17,000565.bmp,371678.38,2.0033147,9135.115,2.4738498,22799.0,4.9997807,239.98947
17,000566.bmp,474149.88,2.0006497,7142.32,2.47045,17849.0,4.99972,212.4881
17,000567.bmp,463190.3,2.0009398,7313.4355,2.470795,18274.0,4.9997263,214.98824
17,000568.bmp,522728.1,2.0018108,6485.8667,2.4689834,16199.0,4.9996915,202.4875
17,000569.bmp,474216.56,2.000931,7143.324,2.47045,17849.0,4.99972,212.4881
17,000570.bmp,443405.88,2.0066888,7681.6055,2.4714618,19139.0,4.9997387,219.98851
17,000571.bmp,627266.8,2.0028055,5409.577,2.4660337,13504.0,4.99963,184.9863
17,000572.bmp,413534.06,2.001554,8196.364,2.4724066,20474.0,4.999756,227.48889
17,000573.bmp,578769.2,2.00169,5856.945,2.4673638,14629.0,4.999658,192.48685
17,000574.bmp,610114.56,2.0011356,5553.1514,2.4664888,13874.0,4.9996395,187.48648
17,000575.bmp,371611.22,2.0029528,9133.465,2.4738498,22799.0,4.9997807,239.98947
17,000576.bmp,565251.8,2.0070064,6027.0405,2.4677844,15014.0,4.999667,194.98701
17,000577.bmp,348996.34,2.0009644,9706.679,2.4746454,24254.0,4.999794,247.48979
17,000578.bmp,463187.34,2.000927,7313.3887,2.470795,18274.0,4.9997263,214.98824
17,000579.bmp,433363.56,2.006189,7856.237,2.4717839,19579.0,4.9997444,222.48863
17,000580.bmp,342018.3,2.0009756,9904.829,2.4749,24749.0,4.999798,249.9899
17,000581.bmp,611476.56,2.0061545,5567.079,2.4664888,13874.0,4.9996395,187.48648
17,000582.bmp,379875.9,2.0049806,8952.238,2.4735734,22324.0,4.999776,237.48936
17,000583.bmp,379162.3,2.000939,8934.192,2.4735734,22324.0,4.999776,237.48936
17,000584.bmp,498404.66,2.0049608,6822.882,2.4697344,17014.0,4.9997063,207.48781
17,000585.bmp,304393.94,2.0021808,11142.136,2.476326,27824.0,4.99982,264.99048
17,000586.bmp,485853.12,2.0019326,6978.737,2.4700963,17429.0,4.999713,209.98795
17,000587.bmp,425397.9,2.0147634,8069.127,2.4720988,20024.0,4.99975,224.98877
17,000588.bmp,423435.34,2.0046408,8028.5864,2.4720988,20024.0,4.99975,224.98877
17,000589.bmp,413953.7,2.003723,8205.245,2.4724066,20474.0,4.999756,227.48889
17,000590.bmp,387492.94,2.001989,8750.693,2.4732912,21854.0,4.999771,234.98924
17,000591.bmp,497808.6,2.0024943,6814.4883,2.4697344,17014.0,4.9997063,207.48781
17,000592.bmp,316062.62,2.0007873,10716.217,2.4758692,26779.0,4.999813,259.9903
17,000593.bmp,349117.47,2.0017965,9710.715,2.4746454,24254.0,4.999794,247.48979
17,000594.bmp,628593.7,2.0076635,5422.6987,2.4660337,13504.0,4.99963,184.9863
17,000595.bmp,316458.88,2.0035024,10730.759,2.4758692,26779.0,4.999813,259.9903
17,000596.bmp,405441.06,2.0066123,8399.68,2.472708,20929.0,4.999761,229.98901
17,000597.bmp,262847.22,2.0009851,12888.346,2.4779932,32204.0,4.9998446,284.99115
17,000598.bmp,356921.6,2.0054069,9531.698,2.4743857,23764.0,4.9997897,244.98969
17,000599.bmp,342285.25,2.002675,9913.241,2.4749,24749.0,4.999798,249.9899
18,000600.bmp,1024284.06,2.0012226,3308.021,2.4565992,8264.0,4.999395,144.98245
18,000601.bmp,1183813.9,2.0024195,2865.4624,2.4533608,7154.0,4.999301,134.98112
18,000602.bmp,1060590.9,2.0006354,3193.0142,2.4558325,7979.0,4.9993734,142.48215
18,000603.bmp,895439.7,2.001382,3784.6135,2.4594173,9454.0,4.999471,154.98361
18,000604.bmp,765588.9,2.000652,4423.442,2.4624639,11054.0,4.9995475,167.48485
18,000605.bmp,840560.8,2.0031183,4038.2866,2.4606934,10079.0,4.999504,159.98413
18,000606.bmp,895160.06,2.0006883,3783.3015,2.4594173,9454.0,4.999471,154.98361
18,000607.bmp,840906.75,2.0040116,4040.0874,2.4606934,10079.0,4.999504,159.98413
18,000608.bmp,743589.56,2.0021844,4560.976,2.4630191,11389.0,4.999561,169.98508
18,000609.bmp,743783.5,2.0027754,4562.3223,2.4630191,11389.0,4.999561,169.98508
18,000610.bmp,813779.2,2.0005856,4161.218,2.4613018,10399.0,4.9995193,162.48438
18,000611.bmp,866933.4,2.0011983,3908.34,2.4600656,9764.0,4.999488,157.48387
18,000612.bmp,681172.06,2.0006468,4971.6074,2.4645903,12424.0,4.9995975,177.48572
18,000613.bmp,593949.2,2.0006971,5701.9873,2.466932,14249.0,4.999649,189.98666
18,000614.bmp,611144.4,2.0048578,5563.4805,2.4664888,13874.0,4.9996395,187.48648
18,000615.bmp,1141799.9,2.0045097,2976.697,2.4542148,7424.0,4.9993267,137.48148
18,000616.bmp,1141568.8,2.004035,2975.9922,2.4542148,7424.0,4.9993267,137.48148
18,000617.bmp,663848.5,2.0060947,5127.578,2.4650848,12779.0,4.999609,179.98592
18,000618.bmp,497432.9,2.0007079,6808.4087,2.4697344,17014.0,4.9997063,207.48781
18,000619.bmp,497719.6,2.0019984,6812.801,2.4697344,17014.0,4.9997063,207.48781
18,000620.bmp,563705.1,2.000758,6008.276,2.4677844,15014.0,4.999667,194.98701
18,000621.bmp,681399.25,2.001383,4973.4365,2.4645903,12424.0,4.9995975,177.48572
18,000622.bmp,593979.7,2.0008,5702.2793,2.466932,14249.0,4.999649,189.98666
18,000623.bmp,549850.1,2.0024104,6169.4263,2.4681942,15404.0,4.9996753,197.48718
18,000624.bmp,463501.94,2.0024238,7318.859,2.470795,18274.0,4.9997263,214.98824
18,000625.bmp,594176.0,2.0015302,5704.361,2.466932,14249.0,4.999649,189.98666
18,000626.bmp,644345.25,2.0014565,5259.8276,2.4655657,13139.0,4.9996195,182.48611
18,000627.bmp,498520.16,2.0054946,6824.6978,2.4697344,17014.0,4.9997063,207.48781
18,000628.bmp,442440.66,2.001839,7663.039,2.4714618,19139.0,4.9997387,219.98851
18,000629.bmp,474740.8,2.0033498,7151.959,2.47045,17849.0,4.99972,212.4881
18,000630.bmp,578505.25,2.0006394,5853.871,2.4673638,14629.0,4.999658,192.48685
18,000631.bmp,610151.8,2.0012577,5553.49,2.4664888,13874.0,4.9996395,187.48648
18,000632.bmp,474577.88,2.0026622,7149.5044,2.47045,17849.0,4.99972,212.4881
18,000633.bmp,423086.72,2.0029216,8021.7007,2.4720988,20024.0,4.99975,224.98877
18,000634.bmp,413379.38,2.0007365,8193.017,2.4724066,20474.0,4.999756,227.48889
18,000635.bmp,867886.25,2.0036733,3913.174,2.4600656,9764.0,4.999488,157.48387
18,000636.bmp,924970.56,2.0006273,3661.1482,2.4587476,9149.0,4.9994535,152.48334
18,000637.bmp,395919.72,2.0020041,8564.573,2.4730027,21389.0,4.9997663,232.48914
18,000638.bmp,335201.72,2.000713,10103.602,2.4751494,25249.0,4.999802,252.49
18,000639.bmp,348945.62,2.0006735,9705.268,2.4746454,24254.0,4.999794,247.48979
19,000640.bmp,2547124.2,2.0061595,1336.1022,2.431702,3329.0,4.9984984,92.47222
19,000641.bmp,2173813.2,2.0049253,1563.8417,2.436875,3899.0,4.998718,99.97436
19,000642.bmp,1709587.8,2.000386,1980.3821,2.4439507,4949.0,4.99899,112.47727
19,000643.bmp,1789096.1,2.000378,1892.3574,2.4426653,4729.0,4.998943,109.976746
19,000644.bmp,2415137.2,2.0083659,1411.8812,2.433518,3514.0,4.9985776,94.97298
19,000645.bmp,2069359.9,2.0067394,1645.5264,2.4384296,4099.0,4.9987803,102.475
19,000646.bmp,2068291.8,2.0054276,1644.4507,2.4384296,4099.0,4.9987803,102.475
19,000647.bmp,1878583.2,2.0059242,1811.3495,2.4413197,4514.0,4.998893,107.47619
19,000648.bmp,1712922.4,2.005115,1985.0638,2.4439507,4949.0,4.99899,112.47727
19,000649.bmp,1715135.2,2.008327,1988.2438,2.4439507,4949.0,4.99899,112.47727
19,000650.bmp,1382059.4,2.0010822,2451.3257,2.4496,6124.0,4.9991837,124.97959
19,000651.bmp,1444269.0,2.008545,2362.0488,2.448563,5879.0,4.99915,122.479164
19,000652.bmp,1330721.2,2.0060823,2557.755,2.4505959,6374.0,4.9992156,127.48
19,000653.bmp,1384736.8,2.0055795,2456.8347,2.4496,6124.0,4.9991837,124.97959
19,000654.bmp,1276731.1,2.0009909,2653.3137,2.4515533,6629.0,4.9992456,129.9804
19,000655.bmp,1278057.0,2.0033443,2656.4346,2.4515533,6629.0,4.9992456,129.9804
19,000656.bmp,1228355.0,2.0006003,2756.8274,2.452474,6889.0,4.9992743,132.48077
19,000657.bmp,1182866.4,2.0006104,2862.8735,2.4533608,7154.0,4.999301,134.98112
19,000658.bmp,1140393.9,2.0016973,2972.5205,2.4542148,7424.0,4.9993267,137.48148
19,000659.bmp,1139837.8,2.0005836,2970.8667,2.4542148,7424.0,4.9993267,137.48148
19,000660.bmp,1566184.5,2.0011778,2163.2732,2.4463558,5404.0,4.999075,117.478264
19,000661.bmp,1709864.2,2.0007782,1980.7705,2.4439507,4949.0,4.99899,112.47727
19,000662.bmp,1382312.0,2.0015855,2451.9424,2.4496,6124.0,4.9991837,124.97959
19,000663.bmp,1284376.5,2.0159535,2673.1543,2.4515533,6629.0,4.9992456,129.9804
19,000664.bmp,1381620.9,2.0003786,2450.4639,2.4496,6124.0,4.9991837,124.97959
19,000665.bmp,1635281.0,2.0004141,2070.4287,2.4451797,5174.0,4.999034,114.977776
19,000666.bmp,1566527.6,2.001685,2163.8215,2.4463558,5404.0,4.999075,117.478264
19,000667.bmp,1385304.2,2.0068154,2458.3489,2.4496,6124.0,4.9991837,124.97959
19,000668.bmp,1382149.9,2.001282,2451.5703,2.4496,6124.0,4.9991837,124.97959
19,000669.bmp,1327722.8,2.0008738,2551.114,2.4505959,6374.0,4.9992156,127.48
19,000670.bmp,1099087.2,2.000507,3080.781,2.4550383,7699.0,4.9993505,139.98181
19,000671.bmp,1228298.8,2.0005085,2756.701,2.452474,6889.0,4.9992743,132.48077
19,000672.bmp,930197.44,2.0138018,3685.2576,2.4587476,9149.0,4.9994535,152.48334
19,000673.bmp,956279.6,2.0005314,3540.9404,2.4580555,8849.0,4.999435,149.98305
19,000674.bmp,1023957.4,2.0005155,3306.8523,2.4565992,8264.0,4.999395,144.98245
19,000675.bmp,1101871.5,2.0062647,3089.6475,2.4550383,7699.0,4.9993505,139.98181
19,000676.bmp,1140140.4,2.0011835,2971.7576,2.4542148,7424.0,4.9993267,137.48148
19,000677.bmp,1185461.5,2.0056202,2870.0425,2.4533608,7154.0,4.999301,134.98112
19,000678.bmp,956318.8,2.0006135,3541.0857,2.4580555,8849.0,4.999435,149.98305
19,000679.bmp,958449.75,2.0056918,3550.0747,2.4580555,8849.0,4.999435,149.98305
2,000040.bmp,610125.75,2.0011036,5553.0625,2.4664888,13874.0,4.9996395,187.48648
2,000041.bmp,536102.0,2.0023344,6327.377,2.4685938,15799.0,4.9996834,199.98734
2,000042.bmp,578902.25,2.0020812,5858.09,2.4673638,14629.0,4.999658,192.48685
2,000043.bmp,563781.6,2.0010295,6009.0913,2.4677844,15014.0,4.999667,194.98701
2,000044.bmp,594339.44,2.0020807,5705.9297,2.466932,14249.0,4.999649,189.98666
2,000045.bmp,486173.12,2.003251,6983.3335,2.4700963,17429.0,4.999713,209.98795
2,000046.bmp,564392.25,2.0033345,6016.013,2.4677844,15014.0,4.999667,194.98701
2,000047.bmp,487114.34,2.0074055,6997.8154,2.4700963,17429.0,4.999713,209.98795
2,000048.bmp,452591.22,2.0011563,7486.326,2.4711323,18704.0,4.9997325,217.48837
2,000049.bmp,474263.78,2.0011303,7144.035,2.47045,17849.0,4.99972,212.4881
2,000050.bmp,486192.0,2.003329,6983.6045,2.4700963,17429.0,4.999713,209.98795
2,000051.bmp,474551.62,2.0024137,7148.6167,2.47045,17849.0,4.99972,212.4881
2,000052.bmp,422777.16,2.0012496,8015.0044,2.4720988,20024.0,4.99975,224.98877
2,000053.bmp,371757.84,2.0037432,9137.069,2.4738498,22799.0,4.9997807,239.98947
2,000054.bmp,371351.38,2.0014148,9126.451,2.4738498,22799.0,4.9997807,239.98947
2,000055.bmp,335524.03,2.0027058,10113.664,2.4751494,25249.0,4.999802,252.49
2,000056.bmp,413506.6,2.0013523,8195.538,2.4724066,20474.0,4.999756,227.48889
2,000057.bmp,342358.94,2.0030372,9915.034,2.4749,24749.0,4.999798,249.9899
2,000058.bmp,304532.12,2.0030897,11147.194,2.476326,27824.0,4.99982,264.99048
2,000059.bmp,336562.97,2.0092525,10146.726,2.4751494,25249.0,4.999802,252.49
2,000060.bmp,413468.94,2.0011702,8194.791,2.4724066,20474.0,4.999756,227.48889
2,000061.bmp,404479.75,2.0011663,8376.883,2.472708,20929.0,4.999761,229.98901
2,000062.bmp,413471.4,2.001182,8194.841,2.4724066,20474.0,4.999756,227.48889
2,000063.bmp,387348.8,2.0011067,8746.838,2.4732912,21854.0,4.999771,234.98924
2,000064.bmp,423156.6,2.0031834,8022.749,2.4720988,20024.0,4.99975,224.98877
2,000065.bmp,387371.88,2.0012257,8747.358,2.4732912,21854.0,4.999771,234.98924
2,000066.bmp,404722.44,2.002436,8382.197,2.472708,20929.0,4.999761,229.98901
2,000067.bmp,395778.66,2.0011532,8560.934,2.4730027,21389.0,4.9997663,232.48914
2,000068.bmp,371309.7,2.00119,9125.426,2.4738498,22799.0,4.9997807,239.98947
2,000069.bmp,371531.84,2.0024562,9131.2,2.4738498,22799.0,4.9997807,239.98947
2,000070.bmp,349272.44,2.0026162,9714.691,2.4746454,24254.0,4.999794,247.48979
2,000071.bmp,363685.62,2.0013652,9318.356,2.4741206,23279.0,4.9997854,242.48958
2,000072.bmp,364085.12,2.0037014,9329.233,2.4741206,23279.0,4.9997854,242.48958
2,000073.bmp,298943.9,2.0038557,11363.865,2.4765482,28354.0,4.9998236,267.49057
2,000074.bmp,322343.88,2.0013084,10512.874,2.4756339,26264.0,4.9998097,257.4902
2,000075.bmp,357376.03,2.0079603,9543.835,2.4743857,23764.0,4.9997897,244.98969
2,000076.bmp,310553.66,2.0042245,10943.065,2.4760997,27299.0,4.999817,262.4904
2,000077.bmp,298608.03,2.0014665,11350.316,2.4765482,28354.0,4.9998236,267.49057
2,000078.bmp,293278.34,2.0029018,11572.767,2.476766,28889.0,4.999827,269.99066
2,000079.bmp,267978.4,2.0043952,12683.8125,2.4777977,31639.0,4.999842,282.49106
20,000680.bmp,422638.0,2.0005908,8012.366,2.4720988,20024.0,4.99975,224.98877
20,000681.bmp,442675.2,2.0031755,7668.156,2.4714618,19139.0,4.9997387,219.98851
20,000682.bmp,579093.5,2.0030181,5860.8306,2.4673638,14629.0,4.999658,192.48685
20,000683.bmp,646180.06,2.0081913,5277.527,2.4655657,13139.0,4.9996195,182.48611
20,000684.bmp,628144.25,2.006021,5418.2627,2.4660337,13504.0,4.99963,184.9863
20,000685.bmp,349219.34,2.0024495,9713.883,2.4746454,24254.0,4.999794,247.48979
20,000686.bmp,379097.28,2.0005958,8932.66,2.4735734,22324.0,4.999776,237.48936
20,000687.bmp,536018.75,2.0021615,6326.83,2.4685938,15799.0,4.9996834,199.98734
20,000688.bmp,579610.0,2.0050805,5866.8657,2.4673638,14629.0,4.999658,192.48685
20,000689.bmp,510022.06,2.0021188,6649.0366,2.4693635,16604.0,4.999699,204.98766
20,000690.bmp,284155.94,2.0147302,12078.309,2.47719,29974.0,4.999833,274.9908
20,000691.bmp,288075.3,2.0044174,11798.001,2.47698,29429.0,4.9998302,272.49075
20,000692.bmp,413369.4,2.0006883,8192.819,2.4724066,20474.0,4.999756,227.48889
20,000693.bmp,335388.9,2.001968,10109.938,2.4751494,25249.0,4.999802,252.49
20,000694.bmp,422657.25,2.0006819,8012.7314,2.4720988,20024.0,4.99975,224.98877
20,000695.bmp,283023.2,2.005802,12024.782,2.47719,29974.0,4.999833,274.9908
20,000696.bmp,255782.78,2.017962,13459.806,2.478374,33349.0,4.9998503,289.9913
20,000697.bmp,405250.88,2.0053952,8394.585,2.472708,20929.0,4.999761,229.98901
20,000698.bmp,388072.34,2.0052583,8764.983,2.4732912,21854.0,4.999771,234.98924
20,000699.bmp,342227.97,2.0023398,9911.582,2.4749,24749.0,4.999798,249.9899
20,000700.bmp,344006.06,2.0142667,9970.62,2.4749,24749.0,4.999798,249.9899
20,000701.bmp,323422.25,2.0091088,10553.849,2.4756339,26264.0,4.9998097,257.4902
20,000702.bmp,487268.22,2.0087304,7002.434,2.4700963,17429.0,4.999713,209.98795
20,000703.bmp,525514.7,2.0144212,6526.7246,2.4689834,16199.0,4.9996915,202.4875
20,000704.bmp,497387.72,2.000526,6807.79,2.4697344,17014.0,4.9997063,207.48781
20,000705.bmp,246091.77,2.0087056,13866.096,2.4787416,34514.0,4.999855,294.99146
20,000706.bmp,310018.78,2.000635,10923.467,2.4760997,27299.0,4.999817,262.4904
20,000707.bmp,404364.84,2.000598,8374.503,2.472708,20929.0,4.999761,229.98901
20,000708.bmp,399580.12,2.0236442,8657.15,2.4730027,21389.0,4.9997663,232.48914
20,000709.bmp,432450.38,2.0016863,7838.604,2.4717839,19579.0,4.9997444,222.48863
20,000710.bmp,253798.81,2.0007951,13345.304,2.478374,33349.0,4.9998503,289.9913
20,000711.bmp,282367.34,2.0007408,11994.441,2.47719,29974.0,4.999833,274.9908
20,000712.bmp,396157.47,2.0033443,8570.307,2.4730027,21389.0,4.9997663,232.48914
20,000713.bmp,288356.34,2.0066488,11811.135,2.47698,29429.0,4.9998302,272.49075
20,000714.bmp,310319.66,2.0027833,10935.196,2.4760997,27299.0,4.999817,262.4904
20,000715.bmp,212028.31,2.0053954,16045.168,2.480253,40004.0,4.999875,317.49207
20,000716.bmp,208421.36,2.002364,16275.214,2.4804077,40639.0,4.999877,319.99213
20,000717.bmp,299252.8,2.0062711,11377.563,2.4765482,28354.0,4.9998236,267.49057
20,000718.bmp,304813.2,2.0052834,11159.401,2.476326,27824.0,4.99982,264.99048
20,000719.bmp,277286.5,2.0007904,12214.826,2.4773962,30524.0,4.999836,277.4909
21,000720.bmp,1566553.0,2.0015798,2163.7078,2.4463558,5404.0,4.999075,117.478264
21,000721.bmp,1966035.1,2.0006983,1722.6013,2.4399092,4304.0,4.9988384,104.97561
21,000722.bmp,1228558.2,2.0009313,2757.2832,2.452474,6889.0,4.9992743,132.48077
21,000723.bmp,1442595.0,2.0055962,2358.581,2.448563,5879.0,4.99915,122.479164
21,000724.bmp,1568100.5,2.0037637,2166.0686,2.4463558,5404.0,4.999075,117.478264
21,000725.bmp,1276700.9,2.0008748,2653.16,2.4515533,6629.0,4.9992456,129.9804
21,000726.bmp,1501984.2,2.0025876,2258.919,2.4474826,5639.0,4.9991136,119.97872
21,000727.bmp,1099303.4,2.0009005,3081.3867,2.4550383,7699.0,4.9993505,139.98181
21,000728.bmp,1500782.9,2.0008483,2256.957,2.4474826,5639.0,4.9991136,119.97872
21,000729.bmp,1099698.0,2.0016878,3082.599,2.4550383,7699.0,4.9993505,139.98181
21,000730.bmp,895735.5,2.0020432,3785.8638,2.4594173,9454.0,4.999471,154.98361
21,000731.bmp,925201.75,2.0011275,3662.0632,2.4587476,9149.0,4.9994535,152.48334
21,000732.bmp,1381936.2,2.0008352,2451.023,2.4496,6124.0,4.9991837,124.97959
21,000733.bmp,1565951.0,2.000742,2162.802,2.4463558,5404.0,4.999075,117.478264
21,000734.bmp,1024150.6,2.000893,3307.4763,2.4565992,8264.0,4.999395,144.98245
21,000735.bmp,867317.5,2.002085,3910.0718,2.4600656,9764.0,4.999488,157.48387
21,000736.bmp,1024150.25,2.0008924,3307.475,2.4565992,8264.0,4.999395,144.98245
21,000737.bmp,957657.06,2.0036197,3546.4067,2.4580555,8849.0,4.999435,149.98305
21,000738.bmp,789645.25,2.001988,4294.264,2.4618917,10724.0,4.9995337,164.98462
21,000739.bmp,895293.94,2.0009875,3783.8674,2.4594173,9454.0,4.999471,154.98361
21,000740.bmp,1140399.6,2.0016384,2972.433,2.4542148,7424.0,4.9993267,137.48148
21,000741.bmp,1140042.0,2.000942,2971.399,2.4542148,7424.0,4.9993267,137.48148
21,000742.bmp,990011.06,2.0021296,3425.6438,2.4573398,8554.0,4.9994154,147.48276
21,000743.bmp,1141009.5,2.0027778,2974.1252,2.4542148,7424.0,4.9993267,137.48148
21,000744.bmp,1024170.7,2.0009325,3307.5413,2.4565992,8264.0,4.999395,144.98245
21,000745.bmp,1099375.4,2.0010316,3081.5886,2.4550383,7699.0,4.9993505,139.98181
21,000746.bmp,814382.2,2.0021367,4164.4443,2.4613018,10399.0,4.9995193,162.48438
21,000747.bmp,989887.06,2.001879,3425.2148,2.4573398,8554.0,4.9994154,147.48276
21,000748.bmp,1099893.5,2.0020435,3083.147,2.4550383,7699.0,4.9993505,139.98181
21,000749.bmp,956463.94,2.000917,3541.623,2.4580555,8849.0,4.999435,149.98305
21,000750.bmp,681381.75,2.0012627,4973.1377,2.4645903,12424.0,4.9995975,177.48572
21,000751.bmp,1061282.4,2.0020087,3195.206,2.4558325,7979.0,4.9993734,142.48215
21,000752.bmp,1228594.2,2.00099,2757.3643,2.452474,6889.0,4.9992743,132.48077
21,000753.bmp,1382868.5,2.0023224,2452.8452,2.4496,6124.0,4.9991837,124.97959
21,000754.bmp,925154.56,2.0010254,3661.8765,2.4587476,9149.0,4.9994535,152.48334
21,000755.bmp,681368.8,2.0012248,4973.0435,2.4645903,12424.0,4.9995975,177.48572
21,000756.bmp,867280.1,2.0019987,3909.9033,2.4600656,9764.0,4.999488,157.48387
21,000757.bmp,956482.1,2.000955,3541.6904,2.4580555,8849.0,4.999435,149.98305
21,000758.bmp,814405.56,2.0021942,4164.564,2.4613018,10399.0,4.9995193,162.48438
21,000759.bmp,896060.06,2.0028374,3787.3657,2.4594173,9454.0,4.999471,154.98361
22,000760.bmp,1099735.4,2.0017557,3082.7039,2.4550383,7699.0,4.9993505,139.98181
22,000761.bmp,1328503.4,2.002119,2552.702,2.4505959,6374.0,4.9992156,127.48
22,000762.bmp,1500759.0,2.0008166,2256.921,2.4474826,5639.0,4.9991136,119.97872
22,000763.bmp,1183847.9,2.0024083,2865.446,2.4533608,7154.0,4.999301,134.98112
22,000764.bmp,1024065.06,2.000726,3307.2,2.4565992,8264.0,4.999395,144.98245
22,000765.bmp,1100615.9,2.003496,3085.3838,2.4550383,7699.0,4.9993505,139.98181
22,000766.bmp,1140531.5,2.0018702,2972.777,2.4542148,7424.0,4.9993267,137.48148
22,000767.bmp,1638529.8,2.004733,2074.8987,2.4451797,5174.0,4.999034,114.977776
22,000768.bmp,1060738.8,2.0009146,3193.4595,2.4558325,7979.0,4.9993734,142.48215
22,000769.bmp,866821.94,2.0008721,3907.7034,2.4600656,9764.0,4.999488,157.48387
22,000770.bmp,1061671.8,2.0028121,3196.488,2.4558325,7979.0,4.9993734,142.48215
22,000771.bmp,1060713.9,2.0008676,3193.3845,2.4558325,7979.0,4.9993734,142.48215
22,000772.bmp,813946.3,2.0009964,4162.0723,2.4613018,10399.0,4.9995193,162.48438
22,000773.bmp,789264.4,2.0009534,4292.0454,2.4618917,10724.0,4.9995337,164.98462
22,000774.bmp,895292.2,2.0009837,3783.86,2.4594173,9454.0,4.999471,154.98361
22,000775.bmp,721694.6,2.0010996,4694.5796,2.463558,11729.0,4.9995737,172.48529
22,000776.bmp,681994.1,2.003199,4977.9497,2.4645903,12424.0,4.9995975,177.48572
22,000777.bmp,701853.0,2.0034585,4838.3525,2.4640815,12074.0,4.999586,174.9855
22,000778.bmp,610463.4,2.0022798,5556.326,2.4664888,13874.0,4.9996395,187.48648
22,000779.bmp,721695.8,2.0011027,4694.587,2.463558,11729.0,4.9995737,172.48529
22,000780.bmp,813951.6,2.0010095,4162.0996,2.4613018,10399.0,4.9995193,162.48438
22,000781.bmp,1099285.9,2.0008686,3081.3376,2.4550383,7699.0,4.9993505,139.98181
22,000782.bmp,1439511.0,2.0008268,2352.9724,2.448563,5879.0,4.99915,122.479164
22,000783.bmp,956462.3,2.0009136,3541.6172,2.4580555,8849.0,4.999435,149.98305
22,000784.bmp,1229015.6,2.001745,2758.4045,2.452474,6889.0,4.9992743,132.48077
22,000785.bmp,956510.9,2.0010152,3541.7969,2.4580555,8849.0,4.999435,149.98305
22,000786.bmp,925163.7,2.0010452,3661.9126,2.4587476,9149.0,4.9994535,152.48334
22,000787.bmp,1141642.5,2.0039577,2975.8774,2.4542148,7424.0,4.9993267,137.48148
22,000788.bmp,1060737.5,2.0009122,3193.4558,2.4558325,7979.0,4.9993734,142.48215
22,000789.bmp,866873.5,2.000991,3907.9358,2.4600656,9764.0,4.999488,157.48387
22,000790.bmp,789660.1,2.0020256,4294.345,2.4618917,10724.0,4.9995337,164.98462
22,000791.bmp,989504.06,2.0010355,3423.7717,2.4573398,8554.0,4.9994154,147.48276
22,000792.bmp,662734.9,2.0021787,5117.5684,2.4650848,12779.0,4.999609,179.98592
22,000793.bmp,765741.7,2.0010514,4424.3247,2.4624639,11054.0,4.9995475,167.48485
22,000794.bmp,701068.5,2.0010817,4832.6123,2.4640815,12074.0,4.999586,174.9855
22,000795.bmp,743237.4,2.0010986,4558.5024,2.4630191,11389.0,4.999561,169.98508
22,000796.bmp,701050.6,2.0010307,4832.4893,2.4640815,12074.0,4.999586,174.9855
22,000797.bmp,626850.4,2.0011318,5405.0566,2.4660337,13504.0,4.99963,184.9863
22,000798.bmp,497576.47,2.001285,6810.3735,2.4697344,17014.0,4.9997063,207.48781
22,000799.bmp,722037.2,2.0021183,4696.969,2.463558,11729.0,4.9995737,172.48529
23,000800.bmp,14122134.0,2.0040462,240.48555,2.3398438,599.0,4.991667,39.933334
23,000801.bmp,16120571.0,2.0007222,210.07582,2.328889,524.0,4.990476,37.42857
23,000802.bmp,12443919.0,2.0002453,272.0334,2.3494809,679.0,4.992647,42.4375
23,000803.bmp,12445048.0,2.0004957,272.0674,2.3494809,679.0,4.992647,42.4375
23,000804.bmp,14111424.0,2.0018377,240.22054,2.3398438,599.0,4.991667,39.933334
23,000805.bmp,9897144.0,2.000291,342.04977,2.365651,854.0,4.994152,47.444443
23,000806.bmp,12451504.0,2.0020154,272.27408,2.3494809,679.0,4.992647,42.4375
23,000807.bmp,9897008.0,2.0002635,342.04507,2.365651,854.0,4.994152,47.444443
23,000808.bmp,11061383.0,2.0002675,306.04092,2.3580246,764.0,4.993464,44.941177
23,000809.bmp,12454644.0,2.002658,272.36148,2.3494809,679.0,4.992647,42.4375
23,000810.bmp,8908362.0,2.0005693,380.1082,2.3725,949.0,4.9947367,49.94737
23,000811.bmp,9913069.0,2.0046813,342.8005,2.365651,854.0,4.994152,47.444443
23,000812.bmp,6142859.5,2.0048916,553.3501,2.3940973,1379.0,4.996377,59.95652
23,000813.bmp,7330458.0,2.0016587,462.38315,2.3842976,1154.0,4.995671,54.95238
23,000814.bmp,7326607.0,2.000332,462.0767,2.3842976,1154.0,4.995671,54.95238
23,000815.bmp,7340096.5,2.005118,463.18225,2.3842976,1154.0,4.995671,54.95238
23,000816.bmp,6692055.5,2.0012994,506.32874,2.389414,1264.0,4.9960475,57.454544
23,000817.bmp,7334315.0,2.0029874,462.6901,2.3842976,1154.0,4.995671,54.95238
23,000818.bmp,3640101.0,2.0005693,930.2647,2.4183142,2324.0,4.9978495,77.46667
23,000819.bmp,6690327.5,2.000645,506.16318,2.389414,1264.0,4.9960475,57.454544
23,000820.bmp,14111559.0,2.001857,240.22284,2.3398438,599.0,4.991667,39.933334
23,000821.bmp,16127985.0,2.0020554,210.2158,2.328889,524.0,4.990476,37.42857
23,000822.bmp,12444091.0,2.000273,272.03714,2.3494809,679.0,4.992647,42.4375
23,000823.bmp,9898061.0,2.0005453,342.09326,2.365651,854.0,4.994152,47.444443
23,000824.bmp,9897106.0,2.0002835,342.04846,2.365651,854.0,4.994152,47.444443
23,000825.bmp,14103063.0,2.0002391,240.02869,2.3398438,599.0,4.991667,39.933334
23,000826.bmp,11071479.0,2.0028505,306.43613,2.3580246,764.0,4.993464,44.941177
23,000827.bmp,8907379.0,2.00028,380.05316,2.3725,949.0,4.9947367,49.94737
23,000828.bmp,9904389.0,2.0022373,342.38257,2.365651,854.0,4.994152,47.444443
23,000829.bmp,11065336.0,2.0012577,306.1924,2.3580246,764.0,4.993464,44.941177
23,000830.bmp,9905509.0,2.0025327,342.43307,2.365651,854.0,4.994152,47.444443
23,000831.bmp,6690322.0,2.0006435,506.16278,2.389414,1264.0,4.9960475,57.454544
23,000832.bmp,6689514.5,2.000333,506.08426,2.389414,1264.0,4.9960475,57.454544
23,000833.bmp,6689599.0,2.0003583,506.09067,2.389414,1264.0,4.9960475,57.454544
23,000834.bmp,7327510.5,2.0006475,462.14957,2.3842976,1154.0,4.995671,54.95238
23,000835.bmp,6690984.0,2.0009103,506.2303,2.389414,1264.0,4.9960475,57.454544
23,000836.bmp,6141677.5,2.0044367,553.22455,2.3940973,1379.0,4.996377,59.95652
23,000837.bmp,7329542.5,2.00134,462.3095,2.3842976,1154.0,4.995671,54.95238
23,000838.bmp,6147408.5,2.0066524,553.83606,2.3940973,1379.0,4.996377,59.95652
23,000839.bmp,7334062.5,2.0029874,462.69006,2.3842976,1154.0,4.995671,54.95238
24,000840.bmp,1968283.8,2.0031934,1724.7494,2.4399092,4304.0,4.9988384,104.97561
24,000841.bmp,2287484.2,2.0037253,1484.7605,2.43524,3704.0,4.9986506,97.47369
24,000842.bmp,2687606.0,2.001282,1260.8076,2.429784,3149.0,4.9984126,89.97143
24,000843.bmp,2173221.8,2.0037594,1562.9324,2.436875,3899.0,4.998718,99.97436
24,000844.bmp,3893139.2,2.0018022,870.784,2.4155555,2174.0,4.997701,74.965515
24,000845.bmp,1794399.1,2.006859,1898.4886,2.4426653,4729.0,4.998943,109.976746
24,000846.bmp,2410380.5,2.003032,1408.1313,2.433518,3514.0,4.9985776,94.97298
24,000847.bmp,2173050.2,2.0036013,1562.809,2.436875,3899.0,4.998718,99.97436
24,000848.bmp,2177784.8,2.00845,1566.591,2.436875,3899.0,4.998718,99.97436
24,000849.bmp,2170117.8,2.0006223,1560.4854,2.436875,3899.0,4.998718,99.97436
24,000850.bmp,1184771.1,2.0041077,2867.878,2.4533608,7154.0,4.999301,134.98112
24,000851.bmp,2284423.0,2.0007,1482.5187,2.43524,3704.0,4.9986506,97.47369
24,000852.bmp,1500706.9,2.000747,2256.8425,2.4474826,5639.0,4.9991136,119.97872
24,000853.bmp,1966571.9,2.0013134,1723.1309,2.4399092,4304.0,4.9988384,104.97561
24,000854.bmp,2287354.5,2.0036116,1484.6761,2.43524,3704.0,4.9986506,97.47369
24,000855.bmp,1439956.1,2.0015144,2353.781,2.448563,5879.0,4.99915,122.479164
24,000856.bmp,1569065.2,2.0052035,2167.625,2.4463558,5404.0,4.999075,117.478264
24,000857.bmp,1183102.9,2.0010104,2863.446,2.4533608,7154.0,4.999301,134.98112
24,000858.bmp,990854.56,2.0039732,3428.7983,2.4573398,8554.0,4.9994154,147.48276
24,000859.bmp,1710878.2,2.0020335,1982.0132,2.4439507,4949.0,4.99899,112.47727
24,000860.bmp,1789478.8,2.0008056,1892.7621,2.4426653,4729.0,4.998943,109.976746
24,000861.bmp,2693550.2,2.006329,1263.9873,2.429784,3149.0,4.9984126,89.97143
24,000862.bmp,2284447.8,2.0007215,1482.5347,2.43524,3704.0,4.9986506,97.47369
24,000863.bmp,2411265.0,2.003836,1408.6965,2.433518,3514.0,4.9985776,94.97298
24,000864.bmp,3206346.0,2.000997,1056.5265,2.423324,2639.0,4.998106,82.46875
24,000865.bmp,2172293.8,2.002835,1562.2113,2.436875,3899.0,4.998718,99.97436
24,000866.bmp,2844910.0,2.0006573,1190.3911,2.427755,2974.0,4.998319,87.47059
24,000867.bmp,2844880.2,2.0006363,1190.3787,2.427755,2974.0,4.998319,87.47059
24,000868.bmp,2171590.0,2.0021172,1561.6514,2.436875,3899.0,4.998718,99.97436
24,000869.bmp,1967675.6,2.0025744,1724.2166,2.4399092,4304.0,4.9988384,104.97561
24,000870.bmp,1966035.8,2.000699,1722.6018,2.4399092,4304.0,4.9988384,104.97561
24,000871.bmp,2688216.8,2.0018058,1261.1376,2.429784,3149.0,4.9984126,89.97143
24,000872.bmp,1790540.0,2.0021298,1894.0148,2.4426653,4729.0,4.998943,109.976746
24,000873.bmp,2410721.5,2.0033152,1408.3306,2.433518,3514.0,4.9985776,94.97298
24,000874.bmp,2284332.0,2.0006201,1482.4596,2.43524,3704.0,4.9986506,97.47369
24,000875.bmp,1711263.4,2.0025532,1982.5276,2.4439507,4949.0,4.99899,112.47727
24,000876.bmp,1874626.2,2.0007355,1806.6641,2.4413197,4514.0,4.998893,107.47619
24,000877.bmp,1328332.6,2.001793,2552.286,2.4505959,6374.0,4.9992156,127.48
24,000878.bmp,1276716.0,2.0008984,2653.1914,2.4515533,6629.0,4.9992456,129.9804
24,000879.bmp,1635608.8,2.0008152,2070.8438,2.4451797,5174.0,4.999034,114.977776
3,000080.bmp,1385488.6,2.0068753,2458.4224,2.4496,6124.0,4.9991837,124.97959
3,000081.bmp,1439337.0,2.000585,2352.688,2.448563,5879.0,4.99915,122.479164
3,000082.bmp,1441652.6,2.0042858,2357.0403,2.448563,5879.0,4.99915,122.479164
3,000083.bmp,1566192.2,2.001119,2163.2095,2.4463558,5404.0,4.999075,117.478264
3,000084.bmp,1183417.1,2.0016794,2864.4033,2.4533608,7154.0,4.999301,134.98112
3,000085.bmp,1567276.8,2.0027113,2164.931,2.4463558,5404.0,4.999075,117.478264
3,000086.bmp,1276833.9,2.001152,2653.5276,2.4515533,6629.0,4.9992456,129.9804
3,000090.bmp,1276921.9,2.0012898,2653.7104,2.4515533,6629.0,4.9992456,129.9804
3,000091.bmp,1277280.0,2.00192,2654.546,2.4515533,6629.0,4.9992456,129.9804
3,000092.bmp,1328470.8,2.00207,2552.6392,2.4505959,6374.0,4.9992156,127.48
3,000093.bmp,989340.2,2.000704,3423.2048,2.4573398,8554.0,4.9994154,147.48276
3,000094.bmp,1100745.2,2.0038693,3085.9587,2.4550383,7699.0,4.9993505,139.98181
3,000095.bmp,1024392.44,2.0014343,3308.371,2.4565992,8264.0,4.999395,144.98245
3,000096.bmp,1099889.8,2.0021052,3083.2422,2.4550383,7699.0,4.9993505,139.98181
3,000097.bmp,991641.25,2.0058403,3431.9927,2.4573398,8554.0,4.9994154,147.48276
3,000098.bmp,956980.2,2.0021346,3543.7783,2.4580555,8849.0,4.999435,149.98305
3,000099.bmp,989349.56,2.0007231,3423.237,2.4573398,8554.0,4.9994154,147.48276
3,000100.bmp,989302.06,2.000627,3423.0728,2.4573398,8554.0,4.9994154,147.48276
3,000101.bmp,1183182.0,2.001213,2863.7358,2.4533608,7154.0,4.999301,134.98112
3,000102.bmp,895368.8,2.0012238,3784.314,2.4594173,9454.0,4.999471,154.98361
3,000103.bmp,989634.3,2.0013678,3424.34,2.4573398,8554.0,4.9994154,147.48276
3,000104.bmp,989586.3,2.0012705,3424.174,2.4573398,8554.0,4.9994154,147.48276
3,000105.bmp,1099458.9,2.0012524,3081.9287,2.4550383,7699.0,4.9993505,139.98181
3,000106.bmp,895938.2,2.002634,3786.9807,2.4594173,9454.0,4.999471,154.98361
3,000107.bmp,814049.75,2.0013194,4162.7446,2.4613018,10399.0,4.9995193,162.48438
3,000108.bmp,896234.1,2.0033643,3788.3618,2.4594173,9454.0,4.999471,154.98361
3,000109.bmp,895153.3,2.0006733,3783.2732,2.4594173,9454.0,4.999471,154.98361
3,000110.bmp,866785.4,2.0007877,3907.5386,2.4600656,9764.0,4.999488,157.48387
3,000114.bmp,662513.6,2.0015101,5115.86,2.4650848,12779.0,4.999609,179.98592
3,000115.bmp,867135.44,2.0016646,3909.2512,2.4600656,9764.0,4.999488,157.48387
3,000116.bmp,815228.0,2.0044918,4169.343,2.4613018,10399.0,4.9995193,162.48438
3,000117.bmp,721844.9,2.0015848,4695.7183,2.463558,11729.0,4.9995737,172.48529
3,000118.bmp,627017.25,2.0017333,5406.6816,2.4660337,13504.0,4.99963,184.9863
3,000119.bmp,644168.56,2.0008388,5258.2046,2.4655657,13139.0,4.9996195,182.48611
4,000123.bmp,644406.94,2.0016482,5260.331,2.4655657,13139.0,4.9996195,182.48611
4,000124.bmp,701231.7,2.001616,4833.903,2.4640815,12074.0,4.999586,174.9855
4,000125.bmp,536599.8,2.0044007,6333.906,2.4685938,15799.0,4.9996834,199.98734
4,000126.bmp,597017.0,2.0119302,5734.001,2.466932,14249.0,4.999649,189.98666
4,000127.bmp,549689.56,2.001757,6167.413,2.4681942,15404.0,4.9996753,197.48718
4,000128.bmp,523988.84,2.0070527,6502.851,2.4689834,16199.0,4.9996915,202.4875
4,000129.bmp,486831.4,2.0062394,6993.751,2.4700963,17429.0,4.999713,209.98795
4,000130.bmp,486950.4,2.0067298,6995.46,2.4700963,17429.0,4.999713,209.98795
4,000131.bmp,578817.25,2.0017874,5857.2295,2.4673638,14629.0,4.999658,192.48685
4,000132.bmp,563995.6,2.0018578,6011.5786,2.4677844,15014.0,4.999667,194.98701
4,000133.bmp,474223.2,2.0009592,7143.424,2.47045,17849.0,4.99972,212.4881
4,000134.bmp,414339.12,2.0057266,8213.45,2.4724066,20474.0,4.999756,227.48889
4,000135.bmp,465791.4,2.013007,7357.5405,2.470795,18274.0,4.9997263,214.98824
4,000136.bmp,395763.44,2.0010762,8560.6045,2.4730027,21389.0,4.9997663,232.48914
4,000137.bmp,413446.78,2.0010629,8194.353,2.4724066,20474.0,4.999756,227.48889
4,000138.bmp,511052.5,2.0063019,6662.928,2.4693635,16604.0,4.999699,204.98766
4,000139.bmp,463230.2,2.0011122,7314.065,2.470795,18274.0,4.9997263,214.98824
4,000140.bmp,662802.56,2.002452,5118.267,2.4650848,12779.0,4.999609,179.98592
4,000141.bmp,580944.56,2.0099044,5880.9805,2.4673638,14629.0,4.999658,192.48685
4,000142.bmp,474215.7,2.0009274,7143.311,2.47045,17849.0,4.99972,212.4881
4,000143.bmp,485641.47,2.000923,6975.2173,2.4700963,17429.0,4.999713,209.98795
4,000144.bmp,563740.0,2.0008817,6008.6475,2.4677844,15014.0,4.999667,194.98701
4,000145.bmp,598158.1,2.016053,5745.7515,2.466932,14249.0,4.999649,189.98666
4,000146.bmp,474591.38,2.0026505,7149.462,2.47045,17849.0,4.99972,212.4881
4,000147.bmp,497708.72,2.0018861,6812.418,2.4697344,17014.0,4.9997063,207.48781
4,000148.bmp,389065.28,2.0107348,8788.922,2.4732912,21854.0,4.999771,234.98924
4,000149.bmp,486833.03,2.006246,6993.774,2.4700963,17429.0,4.999713,209.98795
4,000150.bmp,474417.1,2.001846,7146.591,2.47045,17849.0,4.99972,212.4881
4,000151.bmp,486362.75,2.0041702,6986.5376,2.4700963,17429.0,4.999713,209.98795
4,000152.bmp,510703.16,2.0048614,6658.1445,2.4693635,16604.0,4.999699,204.98766
4,000153.bmp,498335.06,2.004612,6821.695,2.4697344,17014.0,4.9997063,207.48781
4,000154.bmp,388146.38,2.0055718,8766.3545,2.4732912,21854.0,4.999771,234.98924
4,000155.bmp,463233.6,2.001127,7314.1187,2.470795,18274.0,4.9997263,214.98824
4,000156.bmp,423553.5,2.0052001,8030.8267,2.4720988,20024.0,4.99975,224.98877
4,000157.bmp,388545.9,2.0077052,8775.68,2.4732912,21854.0,4.999771,234.98924
4,000158.bmp,468614.5,2.0261133,7405.4443,2.470795,18274.0,4.9997263,214.98824
4,000159.bmp,415549.06,2.0119987,8239.135,2.4724066,20474.0,4.999756,227.48889
5,000160.bmp,1025207.06,2.0038526,3312.3687,2.4565992,8264.0,4.999395,144.98245
5,000161.bmp,895104.9,2.0006337,3783.1982,2.4594173,9454.0,4.999471,154.98361
5,000162.bmp,1024529.1,2.0020456,3309.3813,2.4565992,8264.0,4.999395,144.98245
5,000163.bmp,1060422.9,2.0003188,3192.5085,2.4558325,7979.0,4.9993734,142.48215
5,000164.bmp,1228431.0,2.0008616,2757.1875,2.452474,6889.0,4.9992743,132.48077
5,000165.bmp,1139696.6,2.000336,2970.4988,2.4542148,7424.0,4.9993267,137.48148
5,000166.bmp,1182673.1,2.0002835,2862.4058,2.4533608,7154.0,4.999301,134.98112
5,000167.bmp,1229356.0,2.0027814,2759.8328,2.452474,6889.0,4.9992743,132.48077
5,000168.bmp,925650.0,2.002579,3664.7195,2.4587476,9149.0,4.9994535,152.48334
5,000169.bmp,1027314.8,2.0093546,3321.4634,2.4565992,8264.0,4.999395,144.98245
5,000170.bmp,925198.0,2.0013256,3662.426,2.4587476,9149.0,4.9994535,152.48334
5,000171.bmp,924832.8,2.0003295,3660.6028,2.4587476,9149.0,4.9994535,152.48334
5,000172.bmp,895008.25,2.000349,3782.66,2.4594173,9454.0,4.999471,154.98361
5,000173.bmp,789039.06,2.0003822,4290.82,2.4618917,10724.0,4.9995337,164.98462
5,000174.bmp,956437.8,2.001,3541.7698,2.4580555,8849.0,4.999435,149.98305
5,000175.bmp,866613.44,2.000391,3906.7634,2.4600656,9764.0,4.999488,157.48387
5,000176.bmp,839757.9,2.0010672,4034.1514,2.4606934,10079.0,4.999504,159.98413
5,000177.bmp,593856.25,2.000384,5701.0947,2.466932,14249.0,4.999649,189.98666
5,000178.bmp,743084.7,2.000756,4557.7227,2.4630191,11389.0,4.999561,169.98508
5,000179.bmp,700839.56,2.0004282,4831.034,2.4640815,12074.0,4.999586,174.9855
5,000180.bmp,867225.75,2.0022173,3910.3303,2.4600656,9764.0,4.999488,157.48387
5,000181.bmp,594024.25,2.0010877,5703.0996,2.466932,14249.0,4.999649,189.98666
5,000182.bmp,662402.56,2.0013123,5115.354,2.4650848,12779.0,4.999609,179.98592
5,000183.bmp,721883.44,2.0019672,4696.615,2.463558,11729.0,4.9995737,172.48529
5,000184.bmp,814074.7,2.0015874,4163.302,2.4613018,10399.0,4.9995193,162.48438
5,000185.bmp,839703.0,2.0009365,4033.8882,2.4606934,10079.0,4.999504,159.98413
5,000186.bmp,742969.6,2.0003777,4556.8604,2.4630191,11389.0,4.999561,169.98508
5,000187.bmp,924949.0,2.0006495,3661.1887,2.4587476,9149.0,4.9994535,152.48334
5,000188.bmp,663571.25,2.0057397,5126.6704,2.4650848,12779.0,4.999609,179.98592
5,000189.bmp,789321.75,2.0013056,4292.8003,2.4618917,10724.0,4.9995337,164.98462
5,000190.bmp,662256.94,2.0007348,5113.878,2.4650848,12779.0,4.999609,179.98592
5,000191.bmp,609996.9,2.0007496,5552.08,2.4664888,13874.0,4.9996395,187.48648
5,000192.bmp,701568.56,2.0030599,4837.3896,2.4640815,12074.0,4.999586,174.9855
5,000193.bmp,681078.4,2.0003717,4970.9233,2.4645903,12424.0,4.9995975,177.48572
5,000194.bmp,594710.5,2.0040195,5711.4556,2.466932,14249.0,4.999649,189.98666
5,000195.bmp,662270.06,2.0007744,5113.9795,2.4650848,12779.0,4.999609,179.98592
5,000196.bmp,743061.8,2.0006948,4557.5825,2.4630191,11389.0,4.999561,169.98508
5,000197.bmp,522612.6,2.0015059,6484.8794,2.4689834,16199.0,4.9996915,202.4875
5,000198.bmp,579342.94,2.0042944,5864.5654,2.4673638,14629.0,4.999658,192.48685
5,000199.bmp,535604.94,2.0004091,6321.293,2.4685938,15799.0,4.9996834,199.98734
6,000200.bmp,3639882.5,2.0006554,930.3048,2.4183142,2324.0,4.9978495,77.46667
6,000201.bmp,3016779.8,2.000362,1122.2031,2.4256055,2804.0,4.9982176,84.969696
6,000202.bmp,3016968.2,2.0005558,1122.3118,2.4256055,2804.0,4.9982176,84.969696
6,000203.bmp,2546298.2,2.0079265,1337.279,2.431702,3329.0,4.9984984,92.47222
6,000204.bmp,3205334.2,2.0003657,1056.1931,2.423324,2639.0,4.998106,82.46875
6,000205.bmp,2686889.8,2.0010238,1260.645,2.429784,3149.0,4.9984126,89.97143
6,000206.bmp,2543122.8,2.002939,1333.9574,2.431702,3329.0,4.9984984,92.47222
6,000207.bmp,2686548.8,2.0005634,1260.355,2.429784,3149.0,4.9984126,89.97143
6,000208.bmp,2169994.2,2.000715,1560.5576,2.436875,3899.0,4.998718,99.97436
6,000209.bmp,2063941.4,2.0003839,1640.3148,2.4384296,4099.0,4.9987803,102.475
6,000210.bmp,2844735.8,2.000741,1190.4409,2.427755,2974.0,4.998319,87.47059
6,000211.bmp,2170202.0,2.0009751,1560.7606,2.436875,3899.0,4.998718,99.97436
6,000212.bmp,2064719.9,2.0015514,1641.2721,2.4384296,4099.0,4.9987803,102.475
6,000213.bmp,1709837.9,2.000954,1980.9443,2.4439507,4949.0,4.99899,112.47727
6,000214.bmp,2064250.0,2.0008206,1640.6729,2.4384296,4099.0,4.9987803,102.475
6,000215.bmp,2064325.8,2.0009627,1640.7894,2.4384296,4099.0,4.9987803,102.475
6,000216.bmp,1874395.0,2.000626,1806.5654,2.4413197,4514.0,4.998893,107.47619
6,000217.bmp,1565769.6,2.0006478,2162.7002,2.4463558,5404.0,4.999075,117.478264
6,000218.bmp,1439182.0,2.0004385,2352.5156,2.448563,5879.0,4.99915,122.479164
6,000219.bmp,1709441.8,2.000215,1980.2129,2.4439507,4949.0,4.99899,112.47727
6,000220.bmp,1710515.0,2.0022283,1982.2058,2.4439507,4949.0,4.99899,112.47727
6,000221.bmp,2170080.8,2.0008633,1560.6733,2.436875,3899.0,4.998718,99.97436
6,000222.bmp,1789895.8,2.0018911,1893.7891,2.4426653,4729.0,4.998943,109.976746
6,000223.bmp,1789232.4,2.0007365,1892.6967,2.4426653,4729.0,4.998943,109.976746
6,000224.bmp,1501693.0,2.0031636,2259.5686,2.4474826,5639.0,4.9991136,119.97872
6,000225.bmp,1965813.4,2.0006104,1722.5255,2.4399092,4304.0,4.9988384,104.97561
6,000226.bmp,1382593.5,2.0028195,2453.4539,2.4496,6124.0,4.9991837,124.97959
6,000227.bmp,1381614.4,2.0004377,2450.5364,2.4496,6124.0,4.9991837,124.97959
6,000228.bmp,1789922.9,2.0019903,1893.8829,2.4426653,4729.0,4.998943,109.976746
6,000229.bmp,1327344.2,2.0002346,2550.2993,2.4505959,6374.0,4.9992156,127.48
6,000230.bmp,1636717.1,2.003342,2073.459,2.4451797,5174.0,4.999034,114.977776
6,000231.bmp,1327334.4,2.0002198,2550.2803,2.4505959,6374.0,4.9992156,127.48
6,000232.bmp,1228124.0,2.000224,2756.3088,2.452474,6889.0,4.9992743,132.48077
6,000233.bmp,1140706.4,2.00321,2974.7668,2.4542148,7424.0,4.9993267,137.48148
6,000234.bmp,1383343.8,2.0043201,2455.292,2.4496,6124.0,4.9991837,124.97959
6,000235.bmp,1501563.8,2.0027845,2259.1409,2.4474826,5639.0,4.9991136,119.97872
6,000236.bmp,1635672.4,2.0012372,2071.2805,2.4451797,5174.0,4.999034,114.977776
6,000237.bmp,1061709.0,2.003916,3198.2498,2.4558325,7979.0,4.9993734,142.48215
6,000238.bmp,1276890.9,2.0016541,2654.1934,2.4515533,6629.0,4.9992456,129.9804
6,000239.bmp,1061081.4,2.00218,3195.4797,2.4558325,7979.0,4.9993734,142.48215
7,000920.bmp,1062508.6,2.0044599,3199.118,2.4558325,7979.0,4.9993734,142.48215
7,000921.bmp,927353.3,2.006126,3671.2104,2.4587476,9149.0,4.9994535,152.48334
7,000922.bmp,957430.44,2.0030766,3545.4456,2.4580555,8849.0,4.999435,149.98305
7,000923.bmp,1231145.6,2.005421,2763.4702,2.452474,6889.0,4.9992743,132.48077
7,000924.bmp,1183727.0,2.0021348,2865.055,2.4533608,7154.0,4.999301,134.98112
7,000925.bmp,957532.8,2.003291,3545.825,2.4580555,8849.0,4.999435,149.98305
7,000926.bmp,1106349.2,2.0146947,3102.63,2.4550383,7699.0,4.9993505,139.98181
7,000927.bmp,867497.2,2.0024996,3910.8818,2.4600656,9764.0,4.999488,157.48387
7,000928.bmp,1104341.4,2.0106926,3096.4666,2.4550383,7699.0,4.9993505,139.98181
7,000929.bmp,766185.8,2.002281,4427.043,2.4624639,11054.0,4.9995475,167.48485
7,000930.bmp,743746.9,2.0025392,4561.784,2.4630191,11389.0,4.999561,169.98508
7,000931.bmp,925739.94,2.0023603,3664.3193,2.4587476,9149.0,4.9994535,152.48334
7,000932.bmp,681421.6,2.0013797,4973.4287,2.4645903,12424.0,4.9995975,177.48572
7,000933.bmp,814064.0,2.0012858,4162.6743,2.4613018,10399.0,4.9995193,162.48438
7,000934.bmp,815102.0,2.0039752,4168.2686,2.4613018,10399.0,4.9995193,162.48438
7,000935.bmp,743747.44,2.0025408,4561.7876,2.4630191,11389.0,4.999561,169.98508
7,000936.bmp,770008.06,2.012754,4450.1987,2.4624639,11054.0,4.9995475,167.48485
7,000937.bmp,681417.06,2.0013664,4973.3955,2.4645903,12424.0,4.9995975,177.48572
7,000938.bmp,841999.9,2.0065477,4045.2002,2.4606934,10079.0,4.999504,159.98413
7,000939.bmp,743788.2,2.0026505,4562.0376,2.4630191,11389.0,4.999561,169.98508
7,000940.bmp,1140717.4,2.0021963,2973.2615,2.4542148,7424.0,4.9993267,137.48148
7,000941.bmp,956976.1,2.0020573,3543.6416,2.4580555,8849.0,4.999435,149.98305
7,000942.bmp,895804.06,2.0021966,3786.1536,2.4594173,9454.0,4.999471,154.98361
7,000943.bmp,1279101.4,2.0049126,2658.514,2.4515533,6629.0,4.9992456,129.9804
7,000944.bmp,1140114.1,2.0010686,2971.587,2.4542148,7424.0,4.9993267,137.48148
7,000945.bmp,1277382.6,2.0020118,2654.6677,2.4515533,6629.0,4.9992456,129.9804
7,000946.bmp,990081.5,2.0022721,3425.8877,2.4573398,8554.0,4.9994154,147.48276
7,000947.bmp,898606.94,2.0088065,3798.653,2.4594173,9454.0,4.999471,154.98361
7,000948.bmp,895446.94,2.0013294,3784.5142,2.4594173,9454.0,4.999471,154.98361
7,000949.bmp,721739.25,2.001223,4694.8696,2.463558,11729.0,4.9995737,172.48529
7,000950.bmp,681385.4,2.0012734,4973.164,2.4645903,12424.0,4.9995975,177.48572
7,000951.bmp,1140756.9,2.0022657,2973.3645,2.4542148,7424.0,4.9993267,137.48148
7,000952.bmp,682269.5,2.0040078,4979.9595,2.4645903,12424.0,4.9995975,177.48572
7,000953.bmp,842437.25,2.0076592,4047.4407,2.4606934,10079.0,4.999504,159.98413
7,000954.bmp,790905.56,2.005321,4301.4136,2.4618917,10724.0,4.9995337,164.98462
7,000955.bmp,703084.4,2.0071115,4847.175,2.4640815,12074.0,4.999586,174.9855
7,000956.bmp,722315.56,2.00289,4698.7803,2.463558,11729.0,4.9995737,172.48529
7,000957.bmp,750403.25,2.021504,4604.986,2.4630191,11389.0,4.999561,169.98508
7,000958.bmp,814561.7,2.002578,4165.3623,2.4613018,10399.0,4.9995193,162.48438
7,000959.bmp,895441.8,2.001318,3784.4924,2.4594173,9454.0,4.999471,154.98361
8,000240.bmp,509997.7,2.002092,6648.9473,2.4693635,16604.0,4.999699,204.98766
8,000241.bmp,422611.78,2.0004666,8011.869,2.4720988,20024.0,4.99975,224.98877
8,000242.bmp,413324.56,2.0004714,8191.93,2.4724066,20474.0,4.999756,227.48889
8,000243.bmp,342145.97,2.0019288,9909.548,2.4749,24749.0,4.999798,249.9899
8,000244.bmp,422709.97,2.0010004,8014.0063,2.4720988,20024.0,4.99975,224.98877
8,000245.bmp,379239.78,2.0014853,8936.632,2.4735734,22324.0,4.999776,237.48936
8,000246.bmp,341935.12,2.0004888,9902.419,2.4749,24749.0,4.999798,249.9899
8,000247.bmp,395813.16,2.0014653,8562.269,2.4730027,21389.0,4.9997663,232.48914
8,000248.bmp,363599.78,2.0009615,9316.477,2.4741206,23279.0,4.9997854,242.48958
8,000249.bmp,342006.47,2.000975,9904.826,2.4749,24749.0,4.999798,249.9899
8,000250.bmp,342171.97,2.002081,9910.301,2.4749,24749.0,4.999798,249.9899
8,000251.bmp,293013.47,2.001093,11562.315,2.476766,28889.0,4.999827,269.99066
8,000252.bmp,356953.5,2.006069,9534.846,2.4743857,23764.0,4.9997897,244.98969
8,000253.bmp,310142.44,2.0015707,10928.576,2.4760997,27299.0,4.999817,262.4904
8,000254.bmp,310197.3,2.0019934,10930.885,2.4760997,27299.0,4.999817,262.4904
8,000255.bmp,310081.53,2.0011086,10926.054,2.4760997,27299.0,4.999817,262.4904
8,000256.bmp,253774.81,2.0006058,13344.041,2.478374,33349.0,4.9998503,289.9913
8,000257.bmp,258226.45,2.0006018,13113.943,2.4781852,32774.0,4.9998474,287.49124
8,000258.bmp,263441.22,2.006197,12921.914,2.4779932,32204.0,4.9998446,284.99115
8,000259.bmp,253778.56,2.0006356,13344.239,2.478374,33349.0,4.9998503,289.9913
8,000260.bmp,486179.5,2.0036907,6984.8657,2.4700963,17429.0,4.999713,209.98795
8,000261.bmp,395797.2,2.0013845,8561.923,2.4730027,21389.0,4.9997663,232.48914
8,000262.bmp,363608.5,2.0010095,9316.699,2.4741206,23279.0,4.9997854,242.48958
8,000263.bmp,304268.47,2.0014246,11137.927,2.476326,27824.0,4.99982,264.99048
8,000264.bmp,423725.47,2.0067735,8037.1274,2.4720988,20024.0,4.99975,224.98877
8,000265.bmp,335170.44,2.0005264,10102.658,2.4751494,25249.0,4.999802,252.49
8,000266.bmp,310260.62,2.002471,10933.492,2.4760997,27299.0,4.999817,262.4904
8,000267.bmp,351022.97,2.0148005,9773.798,2.4746454,24254.0,4.999794,247.48979
8,000268.bmp,322680.78,2.0038824,10526.395,2.4756339,26264.0,4.9998097,257.4902
8,000269.bmp,310135.5,2.0015259,10928.331,2.4760997,27299.0,4.999817,262.4904
8,000270.bmp,298619.9,2.0016837,11351.549,2.4765482,28354.0,4.9998236,267.49057
8,000271.bmp,253767.78,2.0005505,13343.672,2.478374,33349.0,4.9998503,289.9913
8,000272.bmp,304155.1,2.0005412,11133.012,2.476326,27824.0,4.99982,264.99048
8,000273.bmp,258668.86,2.0045805,13140.025,2.4781852,32774.0,4.9998474,287.49124
8,000274.bmp,287566.28,2.0005317,11775.129,2.47698,29429.0,4.9998302,272.49075
8,000275.bmp,304307.3,2.00168,11139.349,2.476326,27824.0,4.99982,264.99048
8,000276.bmp,258296.94,2.0012167,13117.975,2.4781852,32774.0,4.9998474,287.49124
8,000277.bmp,241217.69,2.0018208,14054.783,2.478921,35104.0,4.9998574,297.49152
8,000278.bmp,241086.61,2.0005953,14046.181,2.478921,35104.0,4.9998574,297.49152
8,000279.bmp,245210.81,2.0006204,13810.282,2.4787416,34514.0,4.999855,294.99146
9,000280.bmp,721519.8,2.000615,4693.4424,2.463558,11729.0,4.9995737,172.48529
9,000281.bmp,765584.25,2.00064,4423.415,2.4624639,11054.0,4.9995475,167.48485
9,000282.bmp,866957.3,2.0012534,3908.4478,2.4600656,9764.0,4.999488,157.48387
9,000283.bmp,925991.8,2.0031116,3665.6943,2.4587476,9149.0,4.9994535,152.48334
9,000284.bmp,663011.25,2.0032203,5120.231,2.4650848,12779.0,4.999609,179.98592
9,000285.bmp,1140190.0,2.0012705,2971.8867,2.4542148,7424.0,4.9993267,137.48148
9,000286.bmp,1183206.9,2.001255,2863.7961,2.4533608,7154.0,4.999301,134.98112
9,000287.bmp,1139838.2,2.0005844,2970.868,2.4542148,7424.0,4.9993267,137.48148
9,000288.bmp,1024348.2,2.001348,3308.228,2.4565992,8264.0,4.999395,144.98245
9,000289.bmp,1099170.2,2.0006583,3081.0137,2.4550383,7699.0,4.9993505,139.98181
9,000290.bmp,722107.9,2.002383,4697.591,2.463558,11729.0,4.9995737,172.48529
9,000291.bmp,662502.06,2.0014753,5115.771,2.4650848,12779.0,4.999609,179.98592
9,000292.bmp,765847.25,2.001396,4425.087,2.4624639,11054.0,4.9995475,167.48485
9,000293.bmp,644377.94,2.001558,5260.094,2.4655657,13139.0,4.9996195,182.48611
9,000294.bmp,681460.9,2.0015638,4973.886,2.4645903,12424.0,4.9995975,177.48572
9,000295.bmp,611000.7,2.0042486,5561.79,2.4664888,13874.0,4.9996395,187.48648
9,000296.bmp,627813.44,2.0045507,5414.2915,2.4660337,13504.0,4.99963,184.9863
9,000297.bmp,626987.0,2.0016367,5406.421,2.4660337,13504.0,4.99963,184.9863
9,000298.bmp,594508.94,2.0027204,5707.7534,2.466932,14249.0,4.999649,189.98666
9,000299.bmp,610520.1,2.0025346,5557.0337,2.4664888,13874.0,4.9996395,187.48648
9,000300.bmp,662668.56,2.002047,5117.2324,2.4650848,12779.0,4.999609,179.98592
9,000301.bmp,593973.25,2.0007782,5702.218,2.466932,14249.0,4.999649,189.98666
9,000302.bmp,896524.94,2.0040834,3789.7214,2.4594173,9454.0,4.999471,154.98361
9,000303.bmp,662773.4,2.0023637,5118.0415,2.4650848,12779.0,4.999609,179.98592
9,000304.bmp,563705.5,2.0007591,6008.28,2.4677844,15014.0,4.999667,194.98701
9,000305.bmp,867759.5,2.0033119,3912.468,2.4600656,9764.0,4.999488,157.48387
9,000306.bmp,662297.3,2.000788,5114.0137,2.4650848,12779.0,4.999609,179.98592
9,000307.bmp,868040.4,2.0040293,3913.869,2.4600656,9764.0,4.999488,157.48387
9,000308.bmp,626742.9,2.0007887,5404.13,2.4660337,13504.0,4.99963,184.9863
9,000309.bmp,593962.06,2.0007405,5702.111,2.466932,14249.0,4.999649,189.98666
9,000310.bmp,610236.4,2.001535,5554.26,2.4664888,13874.0,4.9996395,187.48648
9,000311.bmp,497474.66,2.0008757,6808.9805,2.4697344,17014.0,4.9997063,207.48781
9,000312.bmp,549441.2,2.0007837,6164.414,2.4681942,15404.0,4.9996753,197.48718
9,000313.bmp,474219.06,2.0009415,7143.362,2.47045,17849.0,4.99972,212.4881
9,000314.bmp,646155.75,2.0076325,5276.058,2.4655657,13139.0,4.9996195,182.48611
9,000315.bmp,536139.4,2.002543,6328.0356,2.4685938,15799.0,4.9996834,199.98734
9,000316.bmp,452554.0,2.0009918,7485.7104,2.4711323,18704.0,4.9997325,217.48837
9,000317.bmp,498098.12,2.00359,6818.217,2.4697344,17014.0,4.9997063,207.48781
9,000318.bmp,404460.6,2.0010717,8376.486,2.472708,20929.0,4.999761,229.98901
9,000319.bmp,627758.1,2.0043051,5413.6284,2.4660337,13504.0,4.99963,184.9863
